// Jest Snapshot v1, https://goo.gl/fbAQLP

exports[`render should be correct snapshot 1`] = `
<div
  className="PageForm-Container"
>
  <div
    className="FormLabelTop form-default"
    id="form_natural_person"
  >
    <div
      className="row nested-row"
    >
      <div
        className="col-xl-12 col-sm-4"
      >
        <h3
          className="TitleBlue"
        >
          Добавление физического лица
        </h3>
      </div>
    </div>
    <div
      className="row nested-row"
    >
      <div
        className="col-xl-6 col-sm-4"
      >
        <ControlLastName
          form_control_server_errors={null}
          handleComponentChange={[Function]}
          handleComponentValidation={[Function]}
          label="Фамилия:"
          name="last_name"
          placeholder="Введите фамилию"
          value_prop=""
        />
      </div>
      <div
        className="col-xl-6 col-sm-4"
      >
        <ControlFirstName
          form_control_server_errors={null}
          handleComponentChange={[Function]}
          handleComponentValidation={[Function]}
          label="Имя:"
          name="first_name"
          placeholder="Введите имя"
          value_prop=""
        />
      </div>
    </div>
    <div
      className="row nested-row"
    >
      <div
        className="col-xl-6 col-sm-4"
      >
        <ControlSecondaryName
          form_control_server_errors={null}
          handleComponentChange={[Function]}
          handleComponentValidation={[Function]}
          label="Отчество:"
          name="secondary_name"
          placeholder="Введите отчество"
          value_prop=""
        />
      </div>
      <div
        className="col-xl-6 col-sm-4"
      >
        <ControlBirthDate
          form_control_server_errors={null}
          handleComponentChange={[Function]}
          handleComponentValidation={[Function]}
          label="Дата рождения:"
          name="birth_date"
          placeholder="дд.мм.гггг"
          value_prop=""
        />
      </div>
    </div>
    <ShowError
      existing_errors={
        Object {
          "access_denied": null,
          "already_auth": null,
          "auth_failed": null,
          "cls_confirmed_deal_removal": null,
          "cls_linked_with_token_removal": null,
          "country_not_defined": null,
          "critical_error": null,
          "csrf": null,
          "form_init_fail": null,
          "invalid_code": null,
          "invalid_form_data": null,
          "not_auth": null,
          "undefined_error": null,
        }
      }
      messages={
        Object {
          "access_denied": "У вас нет прав для данной операции",
          "already_auth": "Пользователь уже авторизован",
          "auth_failed": "Неправильно введен логин или пароль",
          "cls_confirmed_deal_removal": "Нельзя удалить субъект права, если он участвует в сделке.",
          "cls_linked_with_token_removal": "Нельзя удалить субъект права, если он привязан к токену приглашения.",
          "country_not_defined": "Код страны не определен.",
          "critical_error": "Критическая ошибка сервера.",
          "csrf": "Токен сессии истек обновите страницу",
          "form_init_fail": "Ошибка при инициализации формы. Обновите страницу",
          "invalid_code": "Вы ввели неправильный код подтверждения.",
          "invalid_form_data": "Проверьте правильность заполнения формы",
          "not_auth": "Пожалуйста, авторизируйтесь.",
          "undefined_error": "",
        }
      }
    />
    <div
      className="ButtonsRow row nested-row"
    >
      <div
        className="col-xl-6 col-sm-4"
      >
        <button
          className="ButtonApply margin-right"
          data-ripple-button=""
          disabled={true}
          onClick={[Function]}
        >
          <span
            className="ripple-text"
          >
            Добавить
          </span>
        </button>
      </div>
      <div
        className="col-xl-6 col-sm-4"
      />
    </div>
  </div>
</div>
`;
