// Jest Snapshot v1, https://goo.gl/fbAQLP

exports[`render should be correct snapshot 1`] = `
<div
  className="PageForm-Container PageForm-Container_large"
  id="form_bank_transfer"
>
  <div
    className="FormLabelTop form-default form-bank-transfer"
  >
    <div
      className="row nested-row"
    >
      <div
        className="col-xl-12"
      >
        <h2
          className="TitleBlue"
        >
          Добавление метода оплаты типа "Банковский перевод"
        </h2>
      </div>
    </div>
    <div
      className="row nested-row"
    >
      <div
        className="col-xl-6 col-sm-4"
      >
        <ControlBankTransferName
          form_control_server_errors={null}
          handleComponentChange={[Function]}
          handleComponentValidation={[Function]}
          label="Название шаблона платежа:"
          name="name"
          placeholder="Введите название шаблона платежа"
          value_prop=""
        />
      </div>
    </div>
    <div
      className="row nested-row"
    >
      <div
        className="col-xl-6 col-sm-4"
      >
        <ControlBik
          form_control_server_errors={null}
          handleBik={[Function]}
          handleComponentChange={[Function]}
          handleComponentValidation={[Function]}
          label="БИК:"
          name="bik"
          placeholder="Введите БИК"
          popularBanks={Object {}}
          value_prop=""
        />
      </div>
      <div
        className="col-xl-6 col-sm-4"
      >
        <ControlBankName
          form_control_server_errors={null}
          handleComponentChange={[Function]}
          handleComponentValidation={[Function]}
          label="Наименование банка:"
          name="bank_name"
          placeholder="Введите наименование банка"
          value_prop=""
        />
      </div>
    </div>
    <div
      className="row nested-row"
    >
      <div
        className="col-xl-6 col-sm-4"
      >
        <ControlCorrAccountNumber
          form_control_server_errors={null}
          handleComponentChange={[Function]}
          handleComponentValidation={[Function]}
          label="Номер корр. счёта:"
          name="corr_account_number"
          placeholder="Введите корр.счёт"
          value_prop=""
        />
      </div>
      <div
        className="col-xl-6 col-sm-4 account-number"
      >
        <ControlAccountNumber
          form_control_server_errors={null}
          handleComponentChange={[Function]}
          handleComponentValidation={[Function]}
          label="Номер лицевого счёта:"
          name="account_number"
          placeholder="Введите номер лицевого счёта"
          value_prop=""
        />
      </div>
    </div>
    <ShowError
      existing_errors={
        Object {
          "access_denied": null,
          "already_auth": null,
          "auth_failed": null,
          "cls_confirmed_deal_removal": null,
          "cls_linked_with_token_removal": null,
          "country_not_defined": null,
          "critical_error": null,
          "csrf": null,
          "form_init_fail": null,
          "invalid_code": null,
          "invalid_form_data": null,
          "not_auth": null,
          "undefined_error": null,
        }
      }
      messages={
        Object {
          "access_denied": "У вас нет прав для данной операции",
          "already_auth": "Пользователь уже авторизован",
          "auth_failed": "Неправильно введен логин или пароль",
          "cls_confirmed_deal_removal": "Нельзя удалить субъект права, если он участвует в сделке.",
          "cls_linked_with_token_removal": "Нельзя удалить субъект права, если он привязан к токену приглашения.",
          "country_not_defined": "Код страны не определен.",
          "critical_error": "Критическая ошибка сервера.",
          "csrf": "Токен сессии истек обновите страницу",
          "form_init_fail": "Ошибка при инициализации формы. Обновите страницу",
          "invalid_code": "Вы ввели неправильный код подтверждения.",
          "invalid_form_data": "Проверьте правильность заполнения формы",
          "not_auth": "Пожалуйста, авторизируйтесь.",
          "undefined_error": "",
        }
      }
    />
    <div
      className="row nested-row ButtonsRow"
    >
      <div
        className="col-xl-6 col-sm-2 col-xs-4"
      >
        <button
          className="ButtonApply margin-right"
          data-ripple-button=""
          disabled={true}
          onClick={[Function]}
        >
          <span
            className="ripple-text"
          >
            Добавить
          </span>
        </button>
      </div>
    </div>
  </div>
</div>
`;
