<svg width="24" height="24" viewBox="0 0 24 24" version="1.1" xmlns="http://www.w3.org/2000/svg" xmlns:xlink="http://www.w3.org/1999/xlink">
<title>icon</title>
<desc>Created using Figma</desc>
<g id="Canvas" transform="translate(6595 2180)">
<g id="icon">
<g id="Ellipse 2" filter="url(#filter0_d)">
<mask id="mask0_outline_ins">
<use xlink:href="#path0_fill" fill="white" transform="translate(-6593 -2178)"/>
</mask>
<g mask="url(#mask0_outline_ins)">
<use xlink:href="#path1_stroke_2x" transform="translate(-6593 -2178)" fill="#FFFFFF"/>
</g>
</g>
<g id="Group">
<g id="Vector">
<use xlink:href="#path2_fill" transform="translate(-6586.71 -2173)" fill="#FFFFFF"/>
</g>
<g id="Vector">
<use xlink:href="#path3_fill" transform="translate(-6588 -2172.96)" fill="#FFFFFF"/>
</g>
</g>
</g>
</g>
<defs>
<filter id="filter0_d" filterUnits="userSpaceOnUse" x="-6595" y="-2180" width="24" height="24" color-interpolation-filters="sRGB">
<feFlood flood-opacity="0" result="BackgroundImageFix"/>
<feColorMatrix in="SourceAlpha" type="matrix" values="0 0 0 0 0 0 0 0 0 0 0 0 0 0 0 0 0 0 255 0"/>
<feOffset dx="0" dy="0"/>
<feGaussianBlur stdDeviation="1"/>
<feColorMatrix type="matrix" values="0 0 0 0 0.141176 0 0 0 0 0.141176 0 0 0 0 0.141176 0 0 0 0.1 0"/>
<feBlend mode="normal" in2="BackgroundImageFix" result="effect1_dropShadow"/>
<feBlend mode="normal" in="SourceGraphic" in2="effect1_dropShadow" result="shape"/>
</filter>
<path id="path0_fill" d="M 20 10C 20 15.5228 15.5228 20 10 20C 4.47715 20 0 15.5228 0 10C 0 4.47715 4.47715 0 10 0C 15.5228 0 20 4.47715 20 10Z"/>
<path id="path1_stroke_2x" d="M 19 10C 19 14.9706 14.9706 19 10 19L 10 21C 16.0751 21 21 16.0751 21 10L 19 10ZM 10 19C 5.02944 19 1 14.9706 1 10L -1 10C -1 16.0751 3.92487 21 10 21L 10 19ZM 1 10C 1 5.02944 5.02944 1 10 1L 10 -1C 3.92487 -1 -1 3.92487 -1 10L 1 10ZM 10 1C 14.9706 1 19 5.02944 19 10L 21 10C 21 3.92487 16.0751 -1 10 -1L 10 1Z"/>
<path id="path2_fill" d="M 8.67408 4.91808C 8.5158 3.97547 7.84913 3.8282 7.53988 3.81161C 7.44449 3.80648 7.3556 3.75809 7.30351 3.67795C 7.07807 3.33131 6.77504 3.23974 6.51775 3.23974C 6.40253 3.23974 6.29647 3.25814 6.21065 3.28015C 6.18444 3.28691 6.15785 3.29019 6.13151 3.29019C 6.03586 3.29019 5.94379 3.24667 5.88573 3.16715C 5.66361 2.86274 5.37457 2.78032 5.12673 2.78032C 5.06523 2.78032 5.0063 2.78541 4.95152 2.79343C 4.93615 2.7957 4.91905 2.79679 4.90406 2.79679C 4.73759 2.79679 4.5954 2.66338 4.5954 2.49141L 4.5954 0.691962C 4.5954 0.230654 4.24826 4.64695e-09 3.9023 4.64695e-09C 3.55634 4.64695e-09 3.20921 0.230654 3.20921 0.691962L 3.20921 5.11749C 3.20921 5.46349 2.92827 5.71367 2.61646 5.71367C 2.52413 5.71367 2.43088 5.69179 2.34032 5.6439C 1.91795 5.42068 1.46412 5.22498 0.991552 5.03998C 0.885991 4.99869 0.784379 4.98 0.688564 4.98C 0.0404141 4.97992 -0.324322 5.83402 0.392675 6.29545C 1.21561 6.82506 2.25908 7.11495 2.66485 7.71395C 2.91571 8.08423 3.44326 9.14807 3.64775 9.56321C 3.69925 9.66768 3.80552 9.74065 3.92196 9.74065L 7.15624 9.74065C 7.30952 9.74065 7.43915 9.62013 7.45936 9.46819L 7.62986 8.18164C 7.63595 8.13602 7.65246 8.09045 7.6777 8.05197C 8.56923 6.69338 8.82404 5.81142 8.67408 4.91808Z"/>
<path id="path3_fill" d="M 2.03027 3.40251C 2.03027 3.26335 1.9174 3.15048 1.77823 3.15048L 0.900353 3.15048L 3.15044 0.88166L 3.15044 1.75958C 3.15044 1.89875 3.26331 2.01162 3.40247 2.01162C 3.54164 2.01162 3.65451 1.89875 3.65451 1.75958L 3.65451 0.247372C 3.65451 0.108165 3.55562 -4.8873e-09 3.41646 -4.8873e-09L 1.94626 -4.8873e-09C 1.80709 -4.8873e-09 1.69422 0.112828 1.69422 0.252035C 1.69422 0.391242 1.80709 0.50407 1.94626 0.50407L 2.83375 0.50407L 0.50407 2.81523L 0.50407 1.92765C 0.50407 1.78848 0.391242 1.67561 0.252035 1.67561C 0.112828 1.67561 0 1.78848 0 1.92765L 0 3.39785C 0 3.53702 0.126858 3.65455 0.266023 3.65455L 1.77823 3.65455C 1.9174 3.65455 2.03027 3.54168 2.03027 3.40251Z"/>
</defs>
</svg>
