<svg width="42" height="25" viewBox="0 0 42 25" version="1.1" xmlns="http://www.w3.org/2000/svg" xmlns:xlink="http://www.w3.org/1999/xlink">
<title>ico-arrow-right-black</title>
<desc>Created using Figma</desc>
<g id="Canvas" transform="translate(-1670 -1618)">
<g id="ico-arrow-right-black">
<g id="Shape">
<use xlink:href="#path0_stroke" transform="translate(1670 1630.94)" fill="#FFFFFF"/>
</g>
<g id="Shape">
<use xlink:href="#path1_stroke" transform="translate(1694.35 1621)" fill="#FFFFFF"/>
</g>
</g>
</g>
<defs>
<path id="path0_stroke" d="M 0 1.25L 33.2919 1.25L 33.2919 -1.25L 0 -1.25L 0 1.25Z"/>
<path id="path1_stroke" d="M 14.9068 10.0982L 15.6389 11.1114L 17.0868 10.0651L 15.6079 9.06328L 14.9068 10.0982ZM 0 0L 0.70106 -1.0349L -1.25 -2.35658L -1.25 0L 0 0ZM 0.732102 21.8827L 15.6389 11.1114L 14.1747 9.085L -0.732102 19.8564L 0.732102 21.8827ZM 15.6079 9.06328L 0.70106 -1.0349L -0.70106 1.0349L 14.2058 11.1331L 15.6079 9.06328ZM -1.25 0L -1.25 12.4721L 1.25 12.4721L 1.25 0L -1.25 0Z"/>
</defs>
</svg>
