<svg width="16" height="16" viewBox="0 0 16 16" fill="none" xmlns="http://www.w3.org/2000/svg">
<path d="M9.13758 0.572469C8.8214 0.256301 8.30879 0.256306 7.99262 0.572478L4.85504 3.71005L1.71747 0.572478C1.4013 0.256305 0.888684 0.256301 0.572506 0.572469C0.256321 0.888643 0.256317 1.40127 0.572497 1.71745L4.85504 6L9.13759 1.71745C9.45377 1.40127 9.45377 0.888643 9.13758 0.572469Z" transform="translate(12.855 11.0566) rotate(-180)" fill="white"/>
<mask id="mask0" mask-type="alpha" maskUnits="userSpaceOnUse" x="3" y="5" width="10" height="6">
<path d="M9.13758 0.572469C8.8214 0.256301 8.30879 0.256306 7.99262 0.572478L4.85504 3.71005L1.71747 0.572478C1.4013 0.256305 0.888684 0.256301 0.572506 0.572469C0.256321 0.888643 0.256317 1.40127 0.572497 1.71745L4.85504 6L9.13759 1.71745C9.45377 1.40127 9.45377 0.888643 9.13758 0.572469Z" transform="translate(12.855 11.0566) rotate(-180)" fill="white"/>
</mask>
<g mask="url(#mask0)">
<path fill-rule="evenodd" clip-rule="evenodd" d="M0 0H16V16H0V0Z" transform="translate(16 16) rotate(-180)" fill="white"/>
</g>
</svg>
