<svg width="10" height="10" viewBox="0 0 10 10" fill="none" xmlns="http://www.w3.org/2000/svg">
<path fill-rule="evenodd" clip-rule="evenodd" d="M0 5C0 2.23828 2.23877 0 5 0C6.32617 0 7.59766 0.526367 8.53564 1.46484C9.47314 2.40234 10 3.67383 10 5C10 7.76172 7.76123 10 5 10C2.23877 10 0 7.76172 0 5ZM5 1.11133C2.85254 1.11133 1.11133 2.85254 1.11133 5C1.11328 7.14746 2.85352 8.88672 5 8.88867C7.14795 8.88867 8.88916 7.14844 8.88916 5C8.88916 2.85254 7.14795 1.11133 5 1.11133ZM5.55566 7.40723V4.44434H4.44434V7.40723H5.55566ZM5.55566 2.59277V3.7041H4.44434V2.59277H5.55566Z" fill="#A8AAB7"/>
<mask id="mask0" mask-type="alpha" maskUnits="userSpaceOnUse" x="0" y="0" width="10" height="10">
<path fill-rule="evenodd" clip-rule="evenodd" d="M0 5C0 2.23828 2.23877 0 5 0C6.32617 0 7.59766 0.526367 8.53564 1.46484C9.47314 2.40234 10 3.67383 10 5C10 7.76172 7.76123 10 5 10C2.23877 10 0 7.76172 0 5ZM5 1.11133C2.85254 1.11133 1.11133 2.85254 1.11133 5C1.11328 7.14746 2.85352 8.88672 5 8.88867C7.14795 8.88867 8.88916 7.14844 8.88916 5C8.88916 2.85254 7.14795 1.11133 5 1.11133ZM5.55566 7.40723V4.44434H4.44434V7.40723H5.55566ZM5.55566 2.59277V3.7041H4.44434V2.59277H5.55566Z" fill="white"/>
</mask>
<g mask="url(#mask0)">
<path fill-rule="evenodd" clip-rule="evenodd" d="M0 0H10V10H0V0Z" fill="#1991EB"/>
</g>
</svg>
