<svg width="16" height="16" viewBox="0 0 16 16" version="1.1" xmlns="http://www.w3.org/2000/svg" xmlns:xlink="http://www.w3.org/1999/xlink">
<title>Icon (Left)</title>
<desc>Created using Figma</desc>
<g id="Canvas" transform="translate(7078 2535)">
<g id="Icon (Left)">
<mask id="mask0_outline" mask-type="alpha">
<g id="Info Icon">
<use xlink:href="#path0_fill" transform="translate(-7078 -2535)" fill="#FFFFFF"/>
</g>
</mask>
<g id="UI/Color/Flat/Primary" mask="url(#mask0_outline)">
<g id="Base">
<use xlink:href="#path1_fill" transform="translate(-7078 -2535)" fill="#C5D0DE"/>
</g>
</g>
</g>
</g>
<defs>
<path id="path0_fill" fill-rule="evenodd" d="M 9.61912 12.0059L 6.38012 12.0059C 6.16712 12.0059 5.99512 11.8049 5.99512 11.5579C 5.99512 11.3109 6.16712 11.1099 6.38012 11.1099L 7.00012 10.9999L 7.00012 7.99993L 6.38012 7.88393C 6.16712 7.88393 5.99512 7.68293 5.99512 7.43593C 5.99512 7.18893 6.16712 6.98793 6.38012 6.98793L 8.89412 6.98793C 8.97112 6.98793 8.99612 6.95593 9.00712 6.92993C 9.00412 6.94493 9.00012 6.95893 9.00012 6.99993L 9.00012 10.9999L 9.61912 11.1099C 9.83212 11.1099 10.0051 11.3109 10.0051 11.5579C 10.0051 11.8049 9.83212 12.0059 9.61912 12.0059L 9.61912 12.0059ZM 6.99982 4.00009L 7.97982 4.00009C 7.98682 4.00009 7.99282 3.99609 7.99982 3.99609C 8.00682 3.99609 8.01282 4.00009 8.01982 4.00009L 8.99982 4.00009L 8.99982 4.94009C 9.00082 4.96209 9.01182 4.98009 9.01182 5.00109C 9.01182 5.02309 9.00082 5.04109 8.99982 5.06209L 8.99982 6.00009L 8.03282 6.00009C 8.02082 6.00109 8.01082 6.00709 7.99982 6.00709C 7.98782 6.00709 7.97782 6.00109 7.96682 6.00009L 6.99982 6.00009L 6.99982 5.06109C 6.99782 5.04009 6.98682 5.02309 6.98682 5.00109C 6.98682 4.98009 6.99782 4.96209 6.99982 4.94109L 6.99982 4.00009ZM 8 0C 3.581 0 0 3.582 0 8C 0 12.418 3.581 16 8 16C 12.418 16 16 12.418 16 8C 16 3.582 12.418 0 8 0L 8 0Z"/>
<path id="path1_fill" fill-rule="evenodd" d="M 0 0L 16 0L 16 16L 0 16L 0 0Z"/>
</defs>
</svg>
