<svg width="121" height="78" viewBox="0 0 121 78" fill="none" xmlns="http://www.w3.org/2000/svg">
<path d="M21.0277 0H3.83063C1.46705 2.28847 0 5.47597 0 8.9904C0 15.8558 5.54218 21.4952 12.4699 21.4952C19.3162 21.4952 24.9398 15.9375 24.9398 8.9904C24.8583 5.47597 23.3913 2.28847 21.0277 0Z" transform="translate(39.3931 55.0952) scale(-1 1)" fill="#3C4458" stroke="#3C4458" stroke-width="2" stroke-miterlimit="10" stroke-linecap="round" stroke-linejoin="round"/>
<path d="M12.4699 25.0097C5.62369 25.0097 0 19.452 0 12.5048C0 5.63944 5.54219 0 12.4699 0C19.3162 0 24.9398 5.5577 24.9398 12.5048C24.9398 19.3702 19.3977 25.0097 12.4699 25.0097Z" transform="translate(106.47 51.5811) scale(-1 1)" fill="#3C4458" stroke="#3C4458" stroke-width="2" stroke-miterlimit="10" stroke-linecap="round" stroke-linejoin="round"/>
<path d="M22.9838 1.88598L0.815028 33.761C0.326011 34.4966 0 35.3957 0 36.3764V53.3765H10.6769C13.3665 49.4534 17.9306 46.9197 22.9838 46.9197H23.7988C28.9335 46.9197 33.4161 49.4534 36.1057 53.3765H57.2964C57.2964 53.3765 57.2964 3.27541 57.2964 2.13118C57.2964 0.986947 56.3999 0.00617129 55.1774 0.00617129H26.7329C25.2659 -0.0755596 23.8803 0.660021 22.9838 1.88598Z" transform="translate(117.718 1.80078) scale(-1 1)" fill="white" stroke="#3C4458" stroke-width="2" stroke-miterlimit="10" stroke-linecap="round" stroke-linejoin="round"/>
<path d="M38.4503 0H17.1781C16.5261 0 15.8741 0.326929 15.4665 0.899045L0.388533 22.6395C-0.5895 24.0289 0.388533 25.827 2.10009 25.827H38.4503C39.5914 25.827 40.4879 24.9279 40.4879 23.7837V2.04327C40.4879 0.89904 39.5099 0 38.4503 0Z" transform="translate(108.326 8.75439) scale(-1 1)" fill="#C5C5C5" stroke="#3C4458" stroke-width="2" stroke-miterlimit="10" stroke-linecap="round" stroke-linejoin="round"/>
<path d="M6.60173 13.2404C3.0156 13.2404 0 10.2981 0 6.62021C0 3.02405 2.9341 0 6.60173 0C10.1878 0 13.2035 2.94232 13.2035 6.62021C13.2035 10.2981 10.2694 13.2404 6.60173 13.2404Z" transform="translate(100.603 57.4658) scale(-1 1)" fill="#F6F7F9" stroke="#3C4458" stroke-width="2" stroke-miterlimit="10" stroke-linecap="round" stroke-linejoin="round"/>
<path d="M6.60172 13.2404C3.0156 13.2404 0 10.2981 0 6.62021C0 3.02405 2.9341 0 6.60172 0C10.1878 0 13.2034 2.94232 13.2034 6.62021C13.2034 10.2981 10.2693 13.2404 6.60172 13.2404Z" transform="translate(33.6074 57.4658) scale(-1 1)" fill="#F6F7F9" stroke="#3C4458" stroke-width="2" stroke-miterlimit="10" stroke-linecap="round" stroke-linejoin="round"/>
<path d="M0.489015 0H8.31328C8.55779 0 8.8023 0.245185 8.8023 0.490378V1.38942C8.8023 2.20673 8.15028 2.86058 7.33525 2.86058H1.46705C0.652022 2.86058 0 2.20673 0 1.38942V0.490378C0 0.163454 0.163004 0 0.489015 0Z" transform="translate(76.6406 37.1147) scale(-1 1)" fill="white" stroke="#3C4458" stroke-width="2" stroke-miterlimit="10" stroke-linecap="round" stroke-linejoin="round"/>
<path d="M0.652022 10.0529C0.244508 10.0529 0 9.72598 0 9.39906V0.65385C0 0.245195 0.326011 0 0.652022 0C3.42312 0 5.70519 2.28848 5.70519 5.06733C5.70519 7.84618 3.42312 10.0529 0.652022 10.0529Z" transform="translate(118.289 43.4902) scale(-1 1)" fill="#C5C5C5" stroke="#3C4458" stroke-width="2" stroke-miterlimit="10" stroke-linecap="round" stroke-linejoin="round"/>
<path d="M0 1.79808V7.43752C0 8.00963 0.489017 8.41829 0.978033 8.41829H10.1878C10.2693 5.31251 11.2474 2.3702 12.8774 0H1.71156C0.815028 0.0817309 0 0.899037 0 1.79808Z" transform="translate(120 55.0142) scale(-1 1)" fill="#F6F7F9" stroke="#3C4458" stroke-width="2" stroke-miterlimit="10" stroke-linecap="round" stroke-linejoin="round"/>
<path d="M12.3069 0H0C1.63006 2.45193 2.6081 5.3125 2.7711 8.41827H12.3884C12.9589 8.41827 13.3665 8.00962 13.3665 7.43751V0.980769C13.285 0.408652 12.8774 0 12.3069 0Z" transform="translate(14.5361 55.0952) scale(-1 1)" fill="#F6F7F9" stroke="#3C4458" stroke-width="2" stroke-miterlimit="10" stroke-linecap="round" stroke-linejoin="round"/>
<path d="M0 0C1.63006 2.3702 2.68959 5.3125 2.68959 8.41827H39.3658C39.4473 5.3125 40.5069 2.45193 42.1369 0H0Z" transform="translate(81.5303 55.0952) scale(-1 1)" fill="#F6F7F9" stroke="#3C4458" stroke-width="2" stroke-miterlimit="10" stroke-linecap="round" stroke-linejoin="round"/>
<path d="M2.03757 53.5338H55.9924C57.1334 53.5338 58.03 52.6347 58.03 51.4905V2.04327C58.03 0.89904 57.1334 0 55.9924 0H2.03757C0.896531 0 0 0.89904 0 2.04327V51.4905C0 52.6347 0.896531 53.5338 2.03757 53.5338Z" transform="translate(60.4224 1.56201) scale(-1 1)" fill="#C5C5C5" stroke="#3C4458" stroke-width="2" stroke-miterlimit="10" stroke-linecap="round" stroke-linejoin="round"/>
</svg>
