<svg width="40" height="43" viewBox="0 0 40 43" fill="none" xmlns="http://www.w3.org/2000/svg">
<mask id="path-1-inside-1" fill="white">
<path d="M1.22254 0L11.0844 11.1971L11.4919 11.6058L11.0844 12.0144L0.896535 21.9856V21.4952L7.41676 29.2597L7.57975 29.4231L7.49824 29.5866L3.50461 36.6155V36.5337L5.62369 46.0962L3.26011 36.6155V36.5337V36.452L7.00924 29.3414V29.5866L0.244498 21.9856L0 21.7404L0.326006 21.4952L10.1878 11.1971V12.0144L0 1.0625L1.22254 0Z"/>
</mask>
<path d="M1.22254 0L11.0844 11.1971L11.4919 11.6058L11.0844 12.0144L0.896535 21.9856V21.4952L7.41676 29.2597L7.57975 29.4231L7.49824 29.5866L3.50461 36.6155V36.5337L5.62369 46.0962L3.26011 36.6155V36.5337V36.452L7.00924 29.3414V29.5866L0.244498 21.9856L0 21.7404L0.326006 21.4952L10.1878 11.1971V12.0144L0 1.0625L1.22254 0Z" transform="translate(30.6118 42.0957) scale(1 -1) rotate(41.6124)" fill="white"/>
<path d="M1.22254 0L2.72341 -1.32189L1.41022 -2.81289L-0.0894115 -1.50956L1.22254 0ZM11.0844 11.1971L9.58351 12.519L9.62445 12.5655L9.66819 12.6094L11.0844 11.1971ZM11.4919 11.6058L12.9081 13.018L14.3164 11.6058L12.9081 10.1936L11.4919 11.6058ZM11.0844 12.0144L12.4833 13.4438L12.492 13.4353L12.5006 13.4267L11.0844 12.0144ZM0.896535 21.9856H-1.10346V26.7416L2.29547 23.415L0.896535 21.9856ZM0.896535 21.4952L2.42813 20.2091L-1.10346 16.0036V21.4952H0.896535ZM7.41676 29.2597L5.88516 30.5458L5.94014 30.6113L6.00051 30.6719L7.41676 29.2597ZM7.57975 29.4231L9.36957 30.3156L10.0111 29.029L8.99599 28.0109L7.57975 29.4231ZM7.49824 29.5866L9.23716 30.5746L9.2639 30.5275L9.28806 30.4791L7.49824 29.5866ZM3.50461 36.6155H1.50461V44.184L5.24353 37.6035L3.50461 36.6155ZM3.50461 36.5337L5.45724 36.101L1.50461 36.5337H3.50461ZM5.62369 46.0962L3.68308 46.58L7.57632 45.6635L5.62369 46.0962ZM3.26011 36.6155H1.26011V36.861L1.31951 37.0992L3.26011 36.6155ZM3.26011 36.452L1.49096 35.5192L1.26011 35.957V36.452H3.26011ZM7.00924 29.3414H9.00924L5.2401 28.4086L7.00924 29.3414ZM7.00924 29.5866L5.51524 30.9162L9.00924 34.8421V29.5866H7.00924ZM0.244498 21.9856L1.7385 20.656L1.70078 20.6136L1.66072 20.5734L0.244498 21.9856ZM0 21.7404L-1.20217 20.1421L-3.03994 21.5243L-1.41622 23.1526L0 21.7404ZM0.326006 21.4952L1.52817 23.0936L1.65807 22.9959L1.77049 22.8785L0.326006 21.4952ZM10.1878 11.1971H12.1878V6.21699L8.74337 9.81385L10.1878 11.1971ZM10.1878 12.0144L8.72347 13.3766L12.1878 17.1009V12.0144H10.1878ZM0 1.0625L-1.31195 -0.447058L-2.87341 0.909997L-1.46437 2.42471L0 1.0625ZM-0.278329 1.32189L9.58351 12.519L12.5853 9.87525L2.72341 -1.32189L-0.278329 1.32189ZM9.66819 12.6094L10.0757 13.018L12.9081 10.1936L12.5006 9.7849L9.66819 12.6094ZM10.0757 10.1936L9.66819 10.6022L12.5006 13.4267L12.9081 13.018L10.0757 10.1936ZM9.68545 10.5851L-0.502398 20.5563L2.29547 23.415L12.4833 13.4438L9.68545 10.5851ZM2.89654 21.9856V21.4952H-1.10346V21.9856H2.89654ZM-0.635059 22.7814L5.88516 30.5458L8.94835 27.9735L2.42813 20.2091L-0.635059 22.7814ZM6.00051 30.6719L6.1635 30.8353L8.99599 28.0109L8.833 27.8475L6.00051 30.6719ZM5.78992 28.5306L5.70841 28.6941L9.28806 30.4791L9.36957 30.3156L5.78992 28.5306ZM5.75932 28.5986L1.76569 35.6274L5.24353 37.6035L9.23716 30.5746L5.75932 28.5986ZM5.50461 36.6155V36.5337H1.50461V36.6155H5.50461ZM1.55198 36.9664L3.67106 46.5289L7.57632 45.6635L5.45724 36.101L1.55198 36.9664ZM7.56429 45.6124L5.20071 36.1317L1.31951 37.0992L3.68308 46.58L7.56429 45.6124ZM5.26011 36.6155V36.5337H1.26011V36.6155H5.26011ZM5.26011 36.5337V36.452H1.26011V36.5337H5.26011ZM5.02926 37.3848L8.77839 30.2742L5.2401 28.4086L1.49096 35.5192L5.02926 37.3848ZM5.00924 29.3414V29.5866H9.00924V29.3414H5.00924ZM8.50325 28.2569L1.7385 20.656L-1.24951 23.3153L5.51524 30.9162L8.50325 28.2569ZM1.66072 20.5734L1.41622 20.3282L-1.41622 23.1526L-1.17173 23.3978L1.66072 20.5734ZM1.20217 23.3388L1.52817 23.0936L-0.87616 19.8969L-1.20217 20.1421L1.20217 23.3388ZM1.77049 22.8785L11.6323 12.5804L8.74337 9.81385L-1.11847 20.1119L1.77049 22.8785ZM8.18785 11.1971V12.0144H12.1878V11.1971H8.18785ZM11.6522 10.6522L1.46437 -0.299703L-1.46437 2.42471L8.72347 13.3766L11.6522 10.6522ZM1.31195 2.57207L2.53449 1.50956L-0.0894115 -1.50956L-1.31195 -0.447058L1.31195 2.57207Z" transform="translate(30.6118 42.0957) scale(1 -1) rotate(41.6124)" fill="#3C4458" mask="url(#path-1-inside-1)"/>
</svg>
