<svg width="353" height="168" viewBox="0 0 353 168" version="1.1" xmlns="http://www.w3.org/2000/svg" xmlns:xlink="http://www.w3.org/1999/xlink">
<title>guarantpay_logo-01</title>
<desc>Created using Figma</desc>
<g id="Canvas" transform="translate(-711 -3805)">
<g id="guarantpay_logo-01">
<g id="Group 3">
<g id="Shape">
<use xlink:href="#path0_fill" transform="translate(798.997 3805)" fill="#FFFFFF"/>
</g>
<g id="Shape">
<use xlink:href="#path1_fill" transform="translate(893.113 3805)" fill="#FFFFFF"/>
</g>
</g>
<g id="Group 4">
<g id="Shape">
<use xlink:href="#path2_fill" transform="translate(711 3941.55)" fill="#FFFFFF"/>
</g>
<g id="Shape">
<use xlink:href="#path3_fill" transform="translate(748.008 3941.55)" fill="#FFFFFF"/>
</g>
<g id="Shape">
<use xlink:href="#path4_fill" transform="translate(782.169 3941.55)" fill="#FFFFFF"/>
</g>
<g id="Shape">
<use xlink:href="#path5_fill" transform="translate(822.024 3941.55)" fill="#FFFFFF"/>
</g>
<g id="Shape">
<use xlink:href="#path4_fill" transform="translate(853.339 3941.55)" fill="#FFFFFF"/>
</g>
<g id="Shape">
<use xlink:href="#path6_fill" transform="translate(893.193 3941.55)" fill="#FFFFFF"/>
</g>
<g id="Shape">
<use xlink:href="#path7_fill" transform="translate(930.202 3941.55)" fill="#FFFFFF"/>
</g>
<g id="Shape">
<use xlink:href="#path8_fill" transform="translate(970.056 3941.55)" fill="#FFFFFF"/>
</g>
<g id="Shape">
<use xlink:href="#path9_fill" transform="translate(998.524 3941.55)" fill="#FFFFFF"/>
</g>
<g id="Shape">
<use xlink:href="#path10_fill" transform="translate(1029.84 3941.55)" fill="#FFFFFF"/>
</g>
</g>
</g>
</g>
<defs>
<path id="path0_fill" d="M 3.79684 0L 0 0L 0 80.5507L 3.79684 80.5507L 26.6145 80.5507L 53.2412 80.5507L 53.2412 93.986L 79.8557 93.986L 79.8557 80.5507L 79.8557 53.7046L 79.8557 40.2815L 53.2412 40.2815L 53.2412 53.7046L 26.6145 53.7046L 26.6145 26.8461L 79.8557 26.8461L 79.8557 0L 26.6145 0L 3.79684 0Z"/>
<path id="path1_fill" d="M 76.0472 0L 53.2331 0L 0 0L 0 27.0504L 53.2331 27.0504L 53.2331 54.1132L 26.6226 54.1132L 26.6226 40.588L 0 40.588L 0 54.1132L 0 81.1636L 0 108.226L 26.6226 108.226L 26.6226 81.1636L 53.2331 81.1636L 76.0472 81.1636L 79.8557 81.1636L 79.8557 0L 76.0472 0Z"/>
<path id="path2_fill" d="M 0 15.683C 0 5.96654 7.68596 0.0135789 17.0961 0.0135789C 22.8538 -0.232067 28.2132 2.87245 30.7438 7.91929L 22.8272 11.8722C 21.8166 9.64915 19.5894 8.18653 17.0961 8.10865C 12.7976 8.10865 9.313 11.5051 9.313 15.6948C 9.313 19.8846 12.7976 23.281 17.0961 23.281C 18.8139 23.2798 20.4968 22.8082 21.9529 21.92L 21.9529 20.843L 16.1733 20.843L 16.1733 12.8544L 31.3145 12.8544L 31.3145 25.2219C 27.7362 29.2046 22.5388 31.4474 17.1082 31.3524C 7.68596 31.3524 0 25.3521 0 15.683Z"/>
<path id="path3_fill" d="M 0 18.1861L 0 0L 9.74092 0L 9.74092 17.8605C 9.74092 20.8272 11.7337 23.1788 15.682 23.1788C 19.6304 23.1788 21.5736 20.7669 21.5736 17.8605L 21.5736 0L 31.3145 0L 31.3145 18.0896C 31.3145 25.7716 26.3636 31.3553 15.6944 31.3553C 5.02518 31.3553 0 25.8199 0 18.1861Z"/>
<path id="path4_fill" fill-rule="evenodd" d="M 22.5754 27.6809L 23.6731 31.3552L 34.1614 31.3552L 22.8975 0L 11.2639 0L 0 31.3552L 10.4883 31.3552L 11.5859 27.6809L 22.5754 27.6809ZM 14.0559 19.4133L 17.0747 9.30859L 20.1055 19.4133L 14.0559 19.4133Z"/>
<path id="path5_fill" fill-rule="evenodd" d="M 13.1218 21.4834L 17.5081 31.3552L 28.4678 31.3552L 22.7021 20.2585C 26.3474 18.4902 28.5894 14.7671 28.418 10.7661C 28.418 4.89917 24.4294 0 16.9739 0L 0 0L 0 31.3552L 9.64258 31.3552L 9.64258 21.4834L 13.1218 21.4834ZM 15.5073 8.26782C 17.1228 8.26782 18.6511 9.0271 18.6511 10.7175C 18.6511 12.469 17.1228 13.2039 15.5322 13.167L 9.64233 13.167L 9.64233 8.26782L 15.5073 8.26782Z"/>
<path id="path6_fill" d="M 21.8376 31.3553L 9.84534 15.4327L 9.84534 31.3553L 0 31.3553L 0 0L 10.1629 0L 21.4692 14.857L 21.4692 0L 31.3145 0L 31.3145 31.3553L 21.8376 31.3553Z"/>
<path id="path7_fill" d="M 8.20588 31.3553L 8.20588 8.26751L 0 8.26751L 0 0L 25.621 0L 25.621 8.26751L 17.4629 8.26751L 17.4629 31.3431L 8.20588 31.3553Z"/>
<path id="path8_fill" fill-rule="evenodd" d="M 0 0L 0 31.3552L 9.64697 31.3552L 9.64697 21.4834L 17.0034 21.4834C 24.4597 21.4834 28.4678 16.6331 28.4678 10.7661C 28.4678 4.89917 24.4722 0 17.0034 0L 0 0ZM 15.7588 8.31665C 17.4268 8.31665 18.6714 9.07593 18.6714 10.7664L 18.6838 10.7664C 18.6838 12.4688 17.3894 13.2036 15.7588 13.2158L 9.64697 13.2158L 9.64697 8.31665L 15.7588 8.31665Z"/>
<path id="path9_fill" fill-rule="evenodd" d="M 22.5833 27.6809L 23.6814 31.3552L 34.1614 31.3552L 22.8936 0L 11.2678 0L 0 31.3552L 10.4919 31.3552L 11.5901 27.6809L 22.5833 27.6809ZM 14.0605 19.4133L 17.0803 9.30859L 20.1121 19.4133L 14.0605 19.4133Z"/>
<path id="path10_fill" d="M 12.1968 31.3553L 12.1968 18.8989L 0 0L 11.0776 0L 17.1315 10.5702L 23.0837 0L 34.1613 0L 22.0535 18.8989L 22.0535 31.3553L 12.1968 31.3553Z"/>
</defs>
</svg>
