<svg width="43" height="28" viewBox="0 0 43 28" fill="none" xmlns="http://www.w3.org/2000/svg">
<path d="M3.38236 2.96188V1.63636C3.39739 1.43065 3.33011 1.22733 3.19506 1.07026C3.06 0.913191 2.86798 0.814957 2.66041 0.796743H2.55933C2.41172 0.787053 2.26418 0.81675 2.13211 0.882737C2.00004 0.948724 1.88828 1.04858 1.8085 1.17189C1.73456 1.04978 1.62808 0.950184 1.50073 0.88401C1.37338 0.817837 1.23008 0.787644 1.08654 0.796743C0.964045 0.792367 0.842437 0.818934 0.73318 0.873941C0.623924 0.928948 0.530616 1.01058 0.462052 1.11115V0.850336H4.81958e-08V2.96188H0.465662V1.78642C0.456503 1.72212 0.460266 1.65666 0.476737 1.59381C0.493207 1.53095 0.52206 1.47193 0.561639 1.42014C0.601218 1.36836 0.650742 1.32481 0.707369 1.29202C0.763997 1.25923 0.826611 1.23783 0.891616 1.22906H0.98547C1.2923 1.22906 1.45113 1.42914 1.45113 1.78642V2.96188H1.9204V1.78642C1.91179 1.72166 1.91616 1.65585 1.93328 1.59277C1.9504 1.52969 1.97993 1.47056 2.02016 1.41879C2.0604 1.36702 2.11056 1.32361 2.16777 1.29105C2.22499 1.25849 2.28813 1.23743 2.35358 1.22906H2.44382C2.76148 1.22906 2.91309 1.42914 2.91309 1.78642V2.96188H3.38236ZM10.3131 0.850336H9.55148V0.210798H9.08221V0.850336H8.65625V1.26836H9.08943V2.24017C9.08943 2.72965 9.28075 3.02262 9.82943 3.02262C10.0411 3.02699 10.2494 2.96986 10.4287 2.85827L10.2951 2.46526C10.1702 2.53847 10.0286 2.57904 9.88358 2.58316C9.65977 2.58316 9.57675 2.44025 9.57675 2.22588V1.26836H10.3348L10.3131 0.850336ZM14.2839 0.796743C14.1704 0.793343 14.0581 0.820451 13.959 0.875185C13.8598 0.929919 13.7775 1.01023 13.7208 1.10758V0.850336H13.2479V2.96188H13.7136V1.78642C13.7136 1.42914 13.8652 1.24335 14.1612 1.24335C14.26 1.2424 14.3581 1.26061 14.45 1.29694L14.5943 0.853909C14.4889 0.816653 14.3778 0.797325 14.2659 0.796743H14.2839ZM8.29889 1.01826C8.03632 0.863481 7.73436 0.786595 7.42893 0.796743C6.88746 0.796743 6.53731 1.05399 6.53731 1.47201C6.53731 1.82929 6.79722 2.02937 7.25927 2.09368L7.48308 2.12584C7.73576 2.16157 7.84405 2.22588 7.84405 2.34736C7.84405 2.46883 7.67439 2.6046 7.35673 2.6046C7.0976 2.6144 6.84287 2.53624 6.63478 2.38308L6.41097 2.74037C6.6812 2.92784 7.0052 3.02429 7.33507 3.01548C7.95235 3.01548 8.30611 2.72965 8.30611 2.32592C8.30611 1.92219 8.02454 1.76141 7.56249 1.69353L7.33869 1.66137C7.13654 1.63636 6.97771 1.59349 6.97771 1.45415C6.97771 1.31481 7.12932 1.20762 7.382 1.20762C7.61667 1.21097 7.84656 1.2737 8.04981 1.38983L8.29889 1.01826ZM20.7274 0.796743C20.6139 0.793343 20.5016 0.820451 20.4024 0.875185C20.3033 0.929919 20.221 1.01023 20.1642 1.10758V0.850336H19.695V2.96188H20.1751V1.78642C20.1751 1.42914 20.3267 1.24335 20.6227 1.24335C20.7215 1.2424 20.8197 1.26061 20.9115 1.29694L21.0559 0.853909C20.9504 0.816653 20.8393 0.797325 20.7274 0.796743ZM14.7351 1.90075C14.7263 2.18267 14.8301 2.45667 15.0241 2.66333C15.218 2.87 15.4864 2.99267 15.7711 3.00476H15.8722C16.1511 3.01961 16.4255 2.93036 16.6411 2.75466L16.4173 2.39738C16.2505 2.51638 16.0489 2.57789 15.8433 2.57245C15.6745 2.55523 15.5181 2.47666 15.4044 2.35193C15.2907 2.2272 15.2277 2.06518 15.2277 1.89718C15.2277 1.72918 15.2907 1.56715 15.4044 1.44242C15.5181 1.31769 15.6745 1.23912 15.8433 1.22191C16.0456 1.22371 16.2418 1.29013 16.4028 1.41127L16.6267 1.05399C16.411 0.878285 16.1367 0.789039 15.8578 0.803889C15.5794 0.793754 15.3077 0.890205 15.0993 1.07319C14.8909 1.25618 14.7618 1.51162 14.7387 1.78642C14.7387 1.81977 14.7387 1.85311 14.7387 1.88646L14.7351 1.90075ZM19.0669 1.90075V0.850336H18.6192V1.10758C18.5408 1.00704 18.4394 0.92641 18.3233 0.87236C18.2071 0.81831 18.0797 0.79239 17.9514 0.796743C17.6556 0.796743 17.3719 0.913058 17.1627 1.1201C16.9535 1.32714 16.836 1.60795 16.836 1.90075C16.836 2.19355 16.9535 2.47436 17.1627 2.6814C17.3719 2.88844 17.6556 3.00476 17.9514 3.00476C18.0797 3.00911 18.2071 2.98319 18.3233 2.92914C18.4394 2.87509 18.5408 2.79446 18.6192 2.69392V2.95117H19.0921L19.0669 1.90075ZM17.3414 1.90075C17.348 1.73533 17.4199 1.57906 17.5416 1.46552C17.6634 1.35198 17.8252 1.29022 17.9925 1.29349C18.1597 1.29677 18.319 1.36482 18.4361 1.48304C18.5532 1.60125 18.6187 1.76021 18.6187 1.92576C18.6187 2.09132 18.5532 2.25027 18.4361 2.36849C18.319 2.4867 18.1597 2.55476 17.9925 2.55803C17.8252 2.5613 17.6634 2.49954 17.5416 2.386C17.4199 2.27246 17.348 2.1162 17.3414 1.95077C17.3414 1.95077 17.3558 1.91862 17.3558 1.90075H17.3414ZM11.7571 0.796743C11.6106 0.798855 11.466 0.829502 11.3314 0.886934C11.1969 0.944366 11.0752 1.02746 10.9731 1.13147C10.871 1.23548 10.7907 1.35837 10.7366 1.49312C10.6825 1.62787 10.6557 1.77185 10.6579 1.91683C10.66 2.06181 10.691 2.20495 10.749 2.33809C10.807 2.47123 10.891 2.59175 10.9961 2.69277C11.1011 2.7938 11.2253 2.87334 11.3615 2.92687C11.4976 2.9804 11.6431 3.00687 11.7895 3.00476C12.1099 3.02111 12.425 2.91927 12.6739 2.71893L12.4501 2.36165C12.2739 2.50193 12.0554 2.57989 11.8293 2.58316C11.6756 2.59623 11.5228 2.5494 11.4034 2.45264C11.2841 2.35587 11.2076 2.21683 11.1903 2.0651H12.775V1.89003C12.7892 1.75003 12.7735 1.60865 12.7289 1.47505C12.6843 1.34145 12.6118 1.21861 12.5162 1.11452C12.4205 1.01042 12.3038 0.927387 12.1737 0.870797C12.0435 0.814206 11.9028 0.785325 11.7607 0.786025L11.7571 0.796743ZM11.7571 1.20762C11.8266 1.20572 11.8958 1.21746 11.9607 1.24215C12.0256 1.26684 12.0849 1.30401 12.1353 1.3515C12.1856 1.39899 12.2259 1.45588 12.254 1.51887C12.282 1.58186 12.2971 1.64972 12.2985 1.71854H11.1795C11.1879 1.57701 11.2519 1.44434 11.3578 1.34887C11.4637 1.25341 11.6031 1.20271 11.7462 1.20762H11.7571ZM23.3842 1.92219V0H22.9366V1.10401C22.8581 1.00347 22.7567 0.922836 22.6406 0.868786C22.5244 0.814736 22.397 0.788817 22.2687 0.793171C21.9729 0.793171 21.6892 0.909485 21.48 1.11653C21.2708 1.32357 21.1533 1.60438 21.1533 1.89718C21.1533 2.18998 21.2708 2.47079 21.48 2.67783C21.6892 2.88487 21.9729 3.00119 22.2687 3.00119C22.397 3.00554 22.5244 2.97962 22.6406 2.92557C22.7567 2.87152 22.8581 2.79089 22.9366 2.69035V2.94759H23.3842V1.92219ZM24.1458 2.65462C24.1883 2.65313 24.2302 2.66425 24.2662 2.68653C24.3023 2.70881 24.3307 2.74125 24.348 2.77967C24.3595 2.80556 24.3655 2.83355 24.3655 2.86184C24.3655 2.89014 24.3595 2.91813 24.348 2.94402C24.3256 2.99446 24.2841 3.03422 24.2325 3.05478C24.2051 3.06026 24.1768 3.06026 24.1494 3.05478C24.1069 3.05458 24.0652 3.04238 24.0294 3.0196C23.9936 2.99682 23.9651 2.9644 23.9473 2.92616C23.936 2.90021 23.9301 2.87224 23.9301 2.84398C23.9301 2.81572 23.936 2.78775 23.9473 2.76181C23.9652 2.7231 23.9943 2.69054 24.0309 2.66827C24.0676 2.646 24.1101 2.63503 24.153 2.63676L24.1458 2.65462ZM24.1458 3.0119C24.1673 3.01634 24.1894 3.01634 24.2108 3.0119C24.2298 3.00325 24.2469 2.99113 24.2613 2.97618C24.2792 2.9576 24.2923 2.93505 24.2996 2.91043C24.3069 2.88581 24.3081 2.85983 24.3031 2.83465C24.2982 2.80947 24.2872 2.78583 24.2712 2.7657C24.2551 2.74557 24.2344 2.72953 24.2108 2.71893C24.1894 2.7145 24.1673 2.7145 24.1458 2.71893C24.1244 2.7147 24.1023 2.7147 24.0808 2.71893C24.0606 2.7271 24.0421 2.73926 24.0267 2.75466C24.0055 2.77812 23.9917 2.80724 23.987 2.8384C23.9824 2.86955 23.987 2.90138 24.0005 2.92992C24.014 2.95847 24.0356 2.98247 24.0627 2.99895C24.0898 3.01543 24.1212 3.02366 24.153 3.02262L24.1458 3.0119ZM24.1458 2.74751C24.1646 2.74125 24.1849 2.74125 24.2036 2.74751C24.2108 2.75286 24.2166 2.7599 24.2204 2.76801C24.2242 2.77613 24.2258 2.78505 24.2252 2.79396C24.2303 2.80659 24.2303 2.82063 24.2252 2.83326C24.2125 2.84539 24.1959 2.85293 24.1783 2.8547L24.2433 2.92616H24.1928L24.1314 2.8547H24.1097V2.92616H24.0664V2.73322L24.1458 2.74751ZM24.0953 2.78682V2.85827H24.1711C24.173 2.85501 24.174 2.85132 24.174 2.84755C24.174 2.84379 24.173 2.84009 24.1711 2.83683C24.173 2.83358 24.174 2.82988 24.174 2.82612C24.174 2.82235 24.173 2.81866 24.1711 2.8154H24.1458L24.0953 2.78682ZM21.6406 1.89003C21.6473 1.72461 21.7191 1.56835 21.8409 1.45481C21.9626 1.34126 22.1245 1.2795 22.2917 1.28277C22.4589 1.28605 22.6182 1.3541 22.7353 1.47232C22.8524 1.59053 22.918 1.74949 22.918 1.91504C22.918 2.0806 22.8524 2.23955 22.7353 2.35777C22.6182 2.47598 22.4589 2.54404 22.2917 2.54731C22.1245 2.55059 21.9626 2.48882 21.8409 2.37528C21.7191 2.26174 21.6473 2.10548 21.6406 1.94005C21.6406 1.94005 21.6659 1.92219 21.6659 1.90432L21.6406 1.89003ZM5.97058 1.89003V0.818181H5.53379V1.07542C5.45539 0.974882 5.35393 0.894254 5.23781 0.840204C5.12168 0.786154 4.99423 0.760234 4.86598 0.764588C4.57016 0.764588 4.28644 0.880903 4.07726 1.08794C3.86808 1.29499 3.75056 1.57579 3.75056 1.8686C3.75056 2.1614 3.86808 2.4422 4.07726 2.64925C4.28644 2.85629 4.57016 2.9726 4.86598 2.9726C4.99423 2.97696 5.12168 2.95104 5.23781 2.89699C5.35393 2.84294 5.45539 2.76231 5.53379 2.66177V2.91901H5.99946L5.97058 1.89003ZM4.2451 1.89003C4.25218 1.73616 4.31981 1.59114 4.43354 1.48601C4.54727 1.38087 4.69806 1.32396 4.85364 1.32746C5.00922 1.33096 5.15724 1.3946 5.26602 1.50474C5.37481 1.61489 5.43572 1.7628 5.43572 1.91683C5.43572 2.07086 5.37481 2.21877 5.26602 2.32892C5.15724 2.43906 5.00922 2.50269 4.85364 2.50619C4.69806 2.5097 4.54727 2.45279 4.43354 2.34765C4.31981 2.24251 4.25218 2.09749 4.2451 1.94362C4.2451 1.92457 4.2451 1.90671 4.2451 1.89003Z" transform="translate(9.78906 20.9414)" fill="#231F20"/>
<path d="M7.02824 0H0V12.5014H7.02824V0Z" transform="translate(17.9219 5.70312)" fill="#FF5F00"/>
<path d="M9.92362 7.94957C9.92216 6.74526 10.1977 5.55641 10.7293 4.47312C11.2609 3.38983 12.0347 2.44051 12.9919 1.6971C11.8069 0.77613 10.384 0.203653 8.88582 0.0450758C7.38766 -0.113501 5.87464 0.148218 4.51962 0.800332C3.1646 1.45245 2.02223 2.46866 1.22302 3.73286C0.423814 4.99707 -1.46029e-08 6.45829 -1.46029e-08 7.94957C-1.46029e-08 9.44086 0.423814 10.9021 1.22302 12.1663C2.02223 13.4305 3.1646 14.4467 4.51962 15.0988C5.87464 15.7509 7.38766 16.0126 8.88582 15.8541C10.384 15.6955 11.8069 15.123 12.9919 14.202C12.0347 13.4586 11.2609 12.5093 10.7293 11.426C10.1977 10.3427 9.92216 9.15389 9.92362 7.94957Z" transform="translate(8.4458 4.00586)" fill="#EB001B"/>
<path d="M12.9952 7.9557C12.995 9.44725 12.5709 10.9087 11.7712 12.1729C10.9716 13.4372 9.82873 14.4533 8.47325 15.105C7.11778 15.7568 5.60438 16.018 4.10602 15.8588C2.60766 15.6996 1.18478 15.1263 3.85566e-07 14.2046C0.957076 13.4608 1.73089 12.5115 2.26299 11.4283C2.7951 10.3452 3.0716 9.15653 3.0716 7.95213C3.0716 6.74773 2.7951 5.55907 2.26299 4.47592C1.73089 3.39278 0.957076 2.44346 3.85566e-07 1.69966C1.18478 0.77791 2.60766 0.204664 4.10602 0.0454332C5.60438 -0.113797 7.11778 0.147411 8.47325 0.799206C9.82873 1.451 10.9716 2.46709 11.7712 3.73134C12.5709 4.99559 12.995 6.457 12.9952 7.94855V7.9557Z" transform="translate(21.438 4)" fill="#F79E1B"/>
<path d="M0.16244 0.310837V0.0535925H0.267124V-5.99689e-07H1.10162e-06V0.0535925H0.115514V0.310837H0.16244ZM0.678639 0.310837V-5.99689e-07H0.599223L0.505368 0.221516L0.411516 -5.99689e-07H0.339319V0.310837H0.397076V0.0857482L0.48371 0.285828H0.545076L0.631713 0.0857482V0.321556L0.678639 0.310837Z" transform="translate(33.5024 16.5684)" fill="#F79E1B"/>
</svg>
