<svg width="33" height="20" viewBox="0 0 33 20" fill="none" xmlns="http://www.w3.org/2000/svg">
<path fill-rule="evenodd" clip-rule="evenodd" d="M0 0H0.730469H5.11914H15.3604V4.99805H5.11914V10H10.2412V7.5H15.3604V10V14.998V17.5H10.2412V14.998H5.11914H0.730469H0V0ZM27.8784 0H32.2671H33V14.998H32.2671H27.8784H22.7588V20H17.6372V14.998V10V7.5H22.7588V10H27.8784V4.99805H17.6372V0H27.8784Z" fill="#1991EB"/>
</svg>
