<svg width="12" height="13" viewBox="0 0 12 13" fill="none" xmlns="http://www.w3.org/2000/svg">
<path d="M9.01953 11.9697H6.18945V14H3.97461V11.9697H2.17285V10.1855H3.97461V9.24512H2.17285V7.46094H3.97461V1.20312H8.87012C10.2822 1.20312 11.4102 1.57227 12.2539 2.31055C13.0977 3.04297 13.5195 4.01855 13.5195 5.2373C13.5195 6.47949 13.1182 7.45508 12.3154 8.16406C11.5127 8.86719 10.3965 9.22754 8.9668 9.24512H6.18945V10.1855H9.01953V11.9697ZM6.18945 7.46094H8.83496C9.63184 7.46094 10.2412 7.27637 10.6631 6.90723C11.085 6.53809 11.2959 5.9873 11.2959 5.25488C11.2959 4.59863 11.0879 4.0625 10.6719 3.64648C10.2617 3.23047 9.69336 3.01367 8.9668 2.99609H6.18945V7.46094Z" transform="translate(-2 -1)" fill="#3C4458"/>
</svg>
