<svg width="14" height="14" viewBox="0 0 14 14" fill="none" xmlns="http://www.w3.org/2000/svg">
<path d="M0 0.5C0 0.223858 0.223858 0 0.5 0H3.6667C3.94284 0 4.1667 0.223858 4.1667 0.5V3.6667C4.1667 3.94284 3.94284 4.1667 3.6667 4.1667H0.5C0.223858 4.1667 0 3.94284 0 3.6667V0.5Z" transform="translate(-0.0712891 7) rotate(-45)" fill="#7E8FA4"/>
<path d="M5.83301 0.5C5.83301 0.223858 6.05687 0 6.33301 0H9.49971C9.77585 0 9.99971 0.223858 9.99971 0.5V3.6667C9.99971 3.94284 9.77585 4.1667 9.49971 4.1667H6.33301C6.05687 4.1667 5.83301 3.94284 5.83301 3.6667V0.5Z" transform="translate(-0.0712891 7) rotate(-45)" fill="#7E8FA4"/>
<path d="M0 6.33301C0 6.05687 0.223858 5.83301 0.5 5.83301H3.6667C3.94284 5.83301 4.1667 6.05687 4.1667 6.33301V9.49971C4.1667 9.77585 3.94284 9.99971 3.6667 9.99971H0.5C0.223858 9.99971 0 9.77585 0 9.49971V6.33301Z" transform="translate(-0.0712891 7) rotate(-45)" fill="#7E8FA4"/>
<path d="M5.83301 6.33301C5.83301 6.05687 6.05687 5.83301 6.33301 5.83301H9.49971C9.77585 5.83301 9.99971 6.05687 9.99971 6.33301V9.49971C9.99971 9.77585 9.77585 9.99971 9.49971 9.99971H6.33301C6.05687 9.99971 5.83301 9.77585 5.83301 9.49971V6.33301Z" transform="translate(-0.0712891 7) rotate(-45)" fill="#7E8FA4"/>
</svg>
