<svg width="20" height="20" viewBox="0 0 20 20" fill="none" xmlns="http://www.w3.org/2000/svg">
<path fill-rule="evenodd" clip-rule="evenodd" d="M13.0272 0C15.035 0 16.0387 0 17.1195 0.341667C18.2995 0.771167 19.2288 1.7005 19.6583 2.8805C20 3.96117 20 4.96517 20 6.97283V13.0272C20 15.035 20 16.0387 19.6583 17.1195C19.2288 18.2995 18.2995 19.2288 17.1195 19.6582C16.0387 20 15.035 20 13.0272 20H6.97283C4.965 20 3.96117 20 2.8805 19.6582C1.7005 19.2288 0.771167 18.2995 0.341667 17.1195C0 16.0387 0 15.035 0 13.0272V6.97283C0 4.96517 0 3.96117 0.341667 2.8805C0.771167 1.7005 1.7005 0.771167 2.8805 0.341667C3.96117 0 4.965 0 6.97283 0H13.0272Z" fill="url(#paint0_linear)"/>
<path fill-rule="evenodd" clip-rule="evenodd" d="M13.0272 0C15.035 0 16.0387 0 17.1195 0.341667C18.2995 0.771167 19.2288 1.7005 19.6583 2.8805C20 3.96117 20 4.96517 20 6.97283V13.0272C20 15.035 20 16.0387 19.6583 17.1195C19.2288 18.2995 18.2995 19.2288 17.1195 19.6582C16.0387 20 15.035 20 13.0272 20H6.97283C4.965 20 3.96117 20 2.8805 19.6582C1.7005 19.2288 0.771167 18.2995 0.341667 17.1195C0 16.0387 0 15.035 0 13.0272V6.97283C0 4.96517 0 3.96117 0.341667 2.8805C0.771167 1.7005 1.7005 0.771167 2.8805 0.341667C3.96117 0 4.965 0 6.97283 0H13.0272Z" fill="url(#paint1_linear)"/>
<ellipse cx="7" cy="5.5" rx="7" ry="5.5" transform="translate(3 4)" fill="white"/>
<path d="M0 2C1.14286 2 4.52381 1.66667 5 1L1.07143 0C1.07143 0.8 0.595238 1.33333 0 2Z" transform="translate(5 13)" fill="white"/>
<defs>
<linearGradient id="paint0_linear" x2="1" gradientUnits="userSpaceOnUse" gradientTransform="translate(20) scale(20) rotate(90)">
<stop stop-color="#5DF877"/>
<stop offset="1" stop-color="#0EBE2B"/>
</linearGradient>
<linearGradient id="paint1_linear" x2="1" gradientUnits="userSpaceOnUse" gradientTransform="translate(20) scale(20) rotate(90)">
<stop stop-color="#5DF877"/>
<stop offset="1" stop-color="#0EBE2B"/>
</linearGradient>
</defs>
</svg>
