<svg width="16" height="16" viewBox="0 0 16 16" fill="none" xmlns="http://www.w3.org/2000/svg">
<mask id="mask0" mask-type="alpha" maskUnits="userSpaceOnUse" x="0" y="0" width="16" height="16">
<path fill-rule="evenodd" clip-rule="evenodd" d="M0 8C0 3.58203 3.58105 0 8 0C12.418 0 16 3.58203 16 8C16 12.418 12.418 16 8 16C3.58105 16 0 12.418 0 8ZM6.02539 11.0107C6.41504 11.4014 7.04834 11.4014 7.43945 11.0107L11.5103 6.93945C11.9014 6.54883 11.9014 5.91602 11.5103 5.52539C11.1191 5.13477 10.4863 5.13477 10.0962 5.52539L6.73242 8.88965L5.90332 8.06055C5.51318 7.6709 4.88037 7.6709 4.48926 8.06055C4.09912 8.45215 4.09912 9.08496 4.48926 9.47559L6.02539 11.0107Z" fill="white"/>
</mask>
<g mask="url(#mask0)">
<path fill-rule="evenodd" clip-rule="evenodd" d="M0 0H16V16H0V0Z" fill="#09C199"/>
</g>
</svg>
