// Jest Snapshot v1, https://goo.gl/fbAQLP

exports[`ControlAddress should correct snapshot render 1`] = `
<div
  className="Input-Wrapper "
>
  <label
    htmlFor="legal_address"
  >
    Юридический адрес
  </label>
  <input
    name="legal_address"
    onBlur={[Function]}
    onChange={[Function]}
    placeholder="Введите юридический адрес"
    tabIndex="0"
    type="text"
    value="ул. Орловская, г.Брянск"
  />
  <ShowError
    existing_errors={
      Object {
        "isEmpty": null,
        "max_chars": null,
        "min_chars": null,
        "undefined_error": false,
      }
    }
    messages={
      Object {
        "isEmpty": "Поле не может быть пустым",
        "max_chars": "Максимальное количество символов - 1024",
        "min_chars": "Минимальное количество символов - 6",
        "undefined_error": "",
      }
    }
  />
</div>
`;
