// Jest Snapshot v1, https://goo.gl/fbAQLP

exports[`ControlSelectImitation should correct snapshot render 1`] = `
<div
  className="SelectImitation"
>
  <div
    className="SelectImitation-Container"
  >
    <label
      className="SelectImitation-Text "
      onClick={[Function]}
      title="Счет ВТБ"
    >
      Счет ВТБ
    </label>
    <input
      checked={false}
      className="SelectImitation-Checkbox"
      type="checkbox"
    />
    <ul
      className="SelectImitation-Menu"
      onClick={[Function]}
    />
  </div>
</div>
`;
