// Jest Snapshot v1, https://goo.gl/fbAQLP

exports[`ControlNdsType should correct snapshot render 1`] = `
<div
  className="Input-Wrapper "
>
  <label
    htmlFor="nds_code"
  >
    Тип НДС
  </label>
  <ControlSelectImitation
    active_tab={0}
    default_option="Выберите тип НДС"
    id="nds_code"
    options={
      Array [
        <li
          data-value={1}
          onClick={[Function]}
        >
          0
        </li>,
      ]
    }
  />
  <ShowError
    existing_errors={
      Object {
        "isEmpty": null,
        "undefined_error": false,
      }
    }
    messages={
      Object {
        "isEmpty": "Поле не может быть пустым",
        "undefined_error": "",
      }
    }
  />
</div>
`;
