<svg width="16" height="16" viewBox="0 0 16 16" version="1.1" xmlns="http://www.w3.org/2000/svg" xmlns:xlink="http://www.w3.org/1999/xlink">
<title>Calendar</title>
<desc>Created using Figma</desc>
<g id="Canvas" transform="translate(-877 -369)">
<g id="Icon/Calendar">
<mask id="mask0_outline" mask-type="alpha">
<g id="Mask">
<use xlink:href="#path0_fill" transform="translate(877 369)" fill="#FFFFFF"/>
</g>
</mask>
<g id="&#226;&#134;&#179; &#240;&#159;&#142;&#168;Color" mask="url(#mask0_outline)">
<g id="Base">
<use xlink:href="#path1_fill" transform="translate(877 369)" fill="#A8AAB7"/>
</g>
</g>
</g>
</g>
<defs>
<path id="path0_fill" fill-rule="evenodd" d="M 4 9L 6 9L 6 7L 4 7L 4 9ZM 4 12L 6 12L 6 10L 4 10L 4 12ZM 7 9L 9 9L 9 7L 7 7L 7 9ZM 7 12L 9 12L 9 10L 7 10L 7 12ZM 10 9L 12 9L 12 7L 10 7L 10 9ZM 10 12L 12 12L 12 10L 10 10L 10 12ZM 14 6C 14 5.448 13.552 5 13 5L 3 5C 2.448 5 2 5.448 2 6L 2 13C 2 13.552 2.448 14 3 14L 13 14C 13.552 14 14 13.552 14 13L 14 6ZM 14 16L 2 16C 0.896 16 0 15.105 0 14L 0 2C 0 0.895 0.896 0 2 0L 4 0L 4 1C 4 1.552 4.448 2 5 2C 5.552 2 6 1.552 6 1L 6 0L 10 0L 10 1C 10 1.552 10.448 2 11 2C 11.552 2 12 1.552 12 1L 12 0L 14 0C 15.105 0 16 0.895 16 2L 16 14C 16 15.105 15.105 16 14 16Z"/>
<path id="path1_fill" fill-rule="evenodd" d="M 0 0L 16 0L 16 16L 0 16L 0 0Z"/>
</defs>
</svg>
