<svg fill="#A8AAB7" width="20" height="19" viewBox="0 0 20 19" version="1.1" xmlns="http://www.w3.org/2000/svg"
     xmlns:xlink="http://www.w3.org/1999/xlink">
    <title>Пользователи</title>
    <desc>Created using Figma</desc>
    <g id="Canvas" transform="translate(-395 -485)">
        <g id="Group">
            <g id="Vector">
                <use xlink:href="#path0_fill12" transform="translate(401.231 491.245)"/>
            </g>
            <g id="Vector">
                <use xlink:href="#path1_fill12" transform="translate(397.912 489.678)"/>
            </g>
            <g id="Vector">
                <use xlink:href="#path2_fill12" transform="translate(406.781 489.678)"/>
            </g>
            <g id="Vector">
                <use xlink:href="#path3_fill12" transform="translate(395 485)"/>
            </g>
        </g>
    </g>
    <defs>
        <path id="path0_fill12"
              d="M 1.888 3.31144C 1.91785 3.40631 1.95456 3.50349 1.99754 3.5999C 2.08503 3.82862 2.21128 4.06585 2.36318 4.28538C 2.42708 4.37836 2.51123 4.49046 2.61092 4.60154C 2.52036 4.6659 2.45544 4.74221 2.42631 4.83087L 1.21697 5.19733C 0.631846 5.36538 0.207897 7.15579 -1.1268e-07 8.25903C 1.1019 8.92923 2.39174 9.31436 3.76287 9.31436C 3.76313 9.31436 3.76323 9.31436 3.76349 9.31436C 3.92436 9.31426 4.08738 9.30882 4.2481 9.29831C 5.43395 9.2201 6.55836 8.86077 7.54667 8.25815C 7.33944 7.13697 6.91123 5.36703 6.32103 5.19738L 5.11169 4.83092C 5.08262 4.74226 5.01764 4.66595 4.92718 4.60159C 5.02677 4.49051 5.11097 4.37851 5.17487 4.28549C 5.32672 4.06585 5.45303 3.82867 5.54056 3.59985C 5.58349 3.50354 5.6202 3.40667 5.6501 3.31164C 5.76774 3.21292 5.83708 3.06585 5.83708 2.91113L 5.83708 2.53251C 5.83708 2.42379 5.80282 2.31749 5.73995 2.22933L 5.73995 1.69615C 5.73995 0.760923 4.97913 2.87961e-07 4.0439 2.87961e-07L 3.49415 2.87961e-07C 2.55897 2.87961e-07 1.7981 0.760923 1.7981 1.69615L 1.7981 2.22938C 1.73523 2.31749 1.70097 2.4239 1.70097 2.53251L 1.70097 2.91113C 1.70097 3.06554 1.77031 3.21282 1.888 3.31144ZM 3.44359 6.14949C 3.43903 6.19385 3.40764 6.23128 3.36456 6.24308C 3.35487 6.246 3.34518 6.24728 3.33538 6.24728C 3.30185 6.24728 3.26949 6.23144 3.24862 6.20364L 2.94323 5.79877C 2.92903 5.77974 2.92133 5.75682 2.92133 5.73318L 2.92174 5.08354C 2.92179 5.04523 2.94164 5.01 2.97426 4.99026C 3.00697 4.97082 3.04754 4.96949 3.08123 4.98744C 3.17005 5.03462 3.25877 5.06595 3.34508 5.08123C 3.39697 5.09036 3.43477 5.13554 3.43477 5.18831L 3.43477 5.45923C 3.4502 5.46533 3.46426 5.47523 3.47574 5.48769C 3.49641 5.51041 3.50636 5.54103 3.50318 5.57174L 3.44359 6.14949ZM 4.61626 5.73323C 4.61626 5.75687 4.60861 5.7798 4.59446 5.79882L 4.28938 6.20369C 4.26846 6.23128 4.2361 6.24672 4.20262 6.24672C 4.19282 6.24672 4.18313 6.24569 4.17344 6.24282C 4.13041 6.23092 4.09903 6.1939 4.09446 6.14954L 4.03487 5.57179C 4.03169 5.54108 4.04169 5.51051 4.06236 5.48774C 4.07385 5.47528 4.08785 5.46538 4.10323 5.45928L 4.10323 5.18836C 4.10323 5.13559 4.14113 5.09041 4.19303 5.08128C 4.27923 5.066 4.368 5.03467 4.45677 4.98759C 4.49046 4.96954 4.53103 4.97092 4.56374 4.99036C 4.59646 5.0101 4.61631 5.04533 4.61631 5.08359L 4.61631 5.73323L 4.61626 5.73323ZM 2.2821 2.66374C 2.2821 2.60354 2.33067 2.55492 2.39072 2.55492L 2.43513 2.55492L 2.43513 2.36113C 2.43513 2.3199 2.45846 2.28226 2.49528 2.26385C 2.64503 2.18918 2.94205 2.06395 3.24959 2.06395C 3.49487 2.06395 3.69831 2.14523 3.85415 2.30651C 4.04851 2.50728 4.27226 2.60903 4.51949 2.60903C 4.65944 2.60903 4.8042 2.57605 4.94959 2.51077C 4.98323 2.49579 5.02215 2.49877 5.05313 2.51872C 5.06764 2.52785 5.07949 2.54072 5.0879 2.55492L 5.14728 2.55492C 5.20723 2.55492 5.2559 2.60354 5.2559 2.66374L 5.2559 2.84262C 5.2559 2.87944 5.23723 2.91369 5.20651 2.93379L 5.10092 3.00215L 5.09513 3.04723C 5.06077 3.30697 4.91492 3.6439 4.70503 3.94795C 4.43908 4.33364 4.19005 4.50615 4.06103 4.50615L 3.47682 4.50615C 3.34785 4.50615 3.09872 4.33369 2.83287 3.94795C 2.62287 3.64385 2.47708 3.30708 2.44277 3.04728L 2.43692 3.0021L 2.33133 2.93374C 2.30062 2.91359 2.282 2.87933 2.282 2.84256L 2.282 2.66374L 2.2821 2.66374Z"/>
        <path id="path1_fill12"
              d="M 2.41615 5.1304e-05C 1.48092 5.1304e-05 0.720102 0.761026 0.720102 1.69621L 0.720102 2.22944C 0.657179 2.31754 0.622974 2.424 0.622974 2.53256L 0.622974 2.91118C 0.622974 3.06564 0.692307 3.21287 0.810051 3.31154C 0.839846 3.40662 0.876615 3.50359 0.91959 3.6002C 1.00713 3.82892 1.13338 4.0659 1.28523 4.28569C 1.34913 4.37846 1.43333 4.49077 1.53303 4.60164C 1.44241 4.66605 1.37754 4.74251 1.34841 4.83103L 0.139077 5.19759C 0.0916924 5.21128 0.0453333 5.236 -3.75601e-08 5.26985C 0.407744 6.99774 1.43092 8.48374 2.81728 9.49169L 2.94015 9.49169C 2.98908 9.24826 3.04682 8.98287 3.11303 8.7138C 3.57969 6.81851 4.052 6.45205 4.4121 6.34723L 5.30713 6.076C 5.1461 5.83933 5.01046 5.58328 4.91385 5.33359C 4.88195 5.26118 4.85287 5.18815 4.82687 5.11513C 4.81021 5.09651 4.79477 5.07697 4.77964 5.05708L 4.03379 4.83097C 4.00472 4.74246 3.93979 4.666 3.84928 4.60159C 3.94887 4.49072 4.03308 4.37856 4.09697 4.28569C 4.24882 4.06579 4.37513 3.82887 4.46267 3.60005C 4.50559 3.50354 4.54231 3.40682 4.57221 3.31164C 4.68985 3.21308 4.75918 3.0658 4.75918 2.91118L 4.75918 2.53256C 4.75918 2.4239 4.72497 2.31754 4.66205 2.22938L 4.66205 1.69615C 4.66205 0.760974 3.90123 5.00801e-08 2.9661 5.00801e-08L 2.41615 5.00801e-08L 2.41615 5.1304e-05ZM 2.36559 6.14964C 2.36103 6.1941 2.32964 6.23138 2.28656 6.24318C 2.27687 6.2461 2.26718 6.24739 2.25733 6.24739C 2.22385 6.24739 2.19154 6.23154 2.17062 6.20395L 1.86523 5.79892C 1.85103 5.78005 1.84333 5.75697 1.84333 5.73328L 1.84374 5.08369C 1.84379 5.04549 1.86364 5.01026 1.89626 4.99056C 1.92897 4.97108 1.96954 4.96964 2.00323 4.98754C 2.09205 5.03467 2.18082 5.06605 2.26708 5.08139C 2.31897 5.09067 2.35682 5.13564 2.35682 5.18846L 2.35682 5.45954C 2.37226 5.46564 2.38631 5.47544 2.39779 5.48774C 2.41841 5.51056 2.42841 5.54128 2.42523 5.57179L 2.36559 6.14964ZM 3.53826 5.73328C 3.53826 5.75697 3.53056 5.78005 3.51641 5.79892L 3.21133 6.20395C 3.19046 6.23133 3.15805 6.24697 3.12456 6.24697C 3.11477 6.24697 3.10508 6.2458 3.09533 6.24308C 3.05236 6.23113 3.02092 6.1941 3.01641 6.14964L 2.95677 5.57179C 2.95364 5.54128 2.96359 5.51062 2.98426 5.48774C 2.99574 5.47544 3.00974 5.46564 3.02513 5.45954L 3.02513 5.18846C 3.02513 5.13564 3.06303 5.09067 3.11487 5.08139C 3.20113 5.06605 3.2899 5.03467 3.37867 4.98764C 3.41231 4.96964 3.45292 4.97113 3.48564 4.99062C 3.51836 5.01031 3.53826 5.04554 3.53826 5.08369L 3.53826 5.73328ZM 3.87164 2.51087C 3.90523 2.49585 3.94421 2.49892 3.97518 2.51877C 3.98969 2.5281 4.00154 2.54077 4.00995 2.55513L 4.06933 2.55513C 4.12928 2.55513 4.17795 2.60379 4.17795 2.66385L 4.17795 2.84267C 4.17795 2.87969 4.15933 2.91379 4.12856 2.934L 4.02297 3.00241L 4.01718 3.04744C 3.98282 3.30718 3.83703 3.6439 3.62708 3.9481C 3.36118 4.3338 3.1121 4.50641 2.98313 4.50641L 2.39892 4.50641C 2.26995 4.50641 2.02087 4.33385 1.75508 3.9481C 1.54508 3.6439 1.39928 3.30733 1.36492 3.04759L 1.35908 3.00241L 1.25354 2.934C 1.22282 2.91374 1.20415 2.87964 1.20415 2.84267L 1.20415 2.66385C 1.20415 2.60379 1.25272 2.55513 1.31282 2.55513L 1.35718 2.55513L 1.35718 2.36118C 1.35718 2.31995 1.38051 2.28231 1.41733 2.264C 1.56708 2.18923 1.8641 2.06395 2.17164 2.06395C 2.41692 2.06395 2.62041 2.14538 2.77621 2.30656C 2.97056 2.50728 3.19436 2.60903 3.44159 2.60903C 3.58149 2.60913 3.72626 2.57615 3.87164 2.51087Z"/>
        <path id="path2_fill12"
              d="M 0.895077 6.34718C 1.25718 6.45267 1.73154 6.81569 2.1959 8.6799C 2.26482 8.95656 2.32533 9.23385 2.37651 9.49164L 2.49713 9.49164C 2.92995 9.17564 3.33118 8.80923 3.69333 8.39595C 4.49179 7.48467 5.03969 6.41492 5.30913 5.27031C 5.26318 5.23636 5.21615 5.21138 5.168 5.19754L 3.95867 4.83097C 3.92959 4.74246 3.86467 4.666 3.7741 4.60159C 3.87369 4.49072 3.9579 4.37856 4.02179 4.28569C 4.17364 4.06579 4.2999 3.82887 4.38749 3.60005C 4.43041 3.50354 4.46708 3.40682 4.49703 3.31164C 4.61467 3.21308 4.684 3.06579 4.684 2.91118L 4.684 2.53256C 4.684 2.4239 4.6498 2.31754 4.58687 2.22938L 4.58687 1.69615C 4.58687 0.760975 3.82605 2.19101e-08 2.89087 2.19101e-08L 2.34108 2.19101e-08C 1.40595 2.19101e-08 0.645077 0.760975 0.645077 1.69615L 0.645077 2.22938C 0.582154 2.31749 0.547949 2.42395 0.547949 2.53251L 0.547949 2.91113C 0.547949 3.06559 0.617282 3.21282 0.734974 3.31149C 0.76482 3.40656 0.801538 3.50354 0.844513 3.60015C 0.931948 3.82887 1.05826 4.06585 1.21015 4.28564C 1.27405 4.37841 1.35826 4.49072 1.4579 4.60159C 1.36728 4.666 1.30241 4.74246 1.27328 4.83097L 0.52759 5.05708C 0.512462 5.07697 0.496975 5.09651 0.480206 5.11533C 0.454257 5.1882 0.425231 5.26113 0.393282 5.33359C 0.29682 5.58287 0.16123 5.83877 -3.56821e-07 6.076L 0.895077 6.34718ZM 2.29056 6.14959C 2.28605 6.19405 2.25461 6.23133 2.21159 6.24313C 2.2019 6.24605 2.19221 6.24733 2.18236 6.24733C 2.14882 6.24733 2.11651 6.23149 2.09559 6.2039L 1.79015 5.79887C 1.77595 5.78 1.76826 5.75692 1.76826 5.73323L 1.76867 5.08364C 1.76872 5.04544 1.78856 5.0102 1.82123 4.99051C 1.85395 4.97102 1.89451 4.96959 1.92815 4.98749C 2.01697 5.03462 2.10574 5.066 2.19205 5.08133C 2.2439 5.09062 2.2818 5.13559 2.2818 5.18841L 2.2818 5.45949C 2.29723 5.46559 2.31128 5.47538 2.32272 5.48769C 2.34338 5.51051 2.35339 5.54123 2.35015 5.57174L 2.29056 6.14959ZM 3.46318 5.73323C 3.46318 5.75692 3.45554 5.78 3.44138 5.79887L 3.13636 6.2039C 3.11538 6.23128 3.08302 6.24692 3.04959 6.24692C 3.03979 6.24692 3.0301 6.24574 3.02041 6.24303C 2.97738 6.23108 2.946 6.19405 2.94144 6.14959L 2.88185 5.57174C 2.87872 5.54123 2.88867 5.51056 2.90933 5.48769C 2.92082 5.47538 2.93477 5.46559 2.95021 5.45949L 2.95021 5.18841C 2.95021 5.13559 2.9881 5.09062 3.03995 5.08133C 3.12615 5.066 3.21492 5.03462 3.30369 4.98759C 3.33738 4.96959 3.37795 4.97108 3.41067 4.99056C 3.44338 5.01026 3.46323 5.04549 3.46323 5.08364L 3.46323 5.73323L 3.46318 5.73323ZM 1.28985 3.04759L 1.284 3.00241L 1.17841 2.934C 1.14764 2.91374 1.12903 2.87964 1.12903 2.84267L 1.12903 2.66385C 1.12903 2.60379 1.17764 2.55513 1.23764 2.55513L 1.28205 2.55513L 1.28205 2.36118C 1.28205 2.31995 1.30538 2.28231 1.3422 2.264C 1.492 2.18923 1.78903 2.06395 2.09656 2.06395C 2.3419 2.06395 2.54533 2.14538 2.70118 2.30656C 2.89554 2.50728 3.11928 2.60903 3.36651 2.60903C 3.50646 2.60903 3.65128 2.57605 3.79667 2.51082C 3.83026 2.4958 3.86923 2.49887 3.9002 2.51872C 3.91472 2.52805 3.92656 2.54072 3.93497 2.55508L 3.99431 2.55508C 4.05431 2.55508 4.10297 2.60374 4.10297 2.66379L 4.10297 2.84261C 4.10297 2.87964 4.08431 2.91374 4.05359 2.93395L 3.948 3.00236L 3.9422 3.04738C 3.90785 3.30713 3.762 3.64385 3.55205 3.94805C 3.2862 4.33374 3.03713 4.50636 2.90815 4.50636L 2.32395 4.50636C 2.19497 4.50636 1.9459 4.3338 1.68 3.94805C 1.46995 3.6439 1.32421 3.30733 1.28985 3.04759Z"/>
        <path id="path3_fill12"
              d="M 19.9778 8.0407C 19.8869 6.6628 19.5228 5.34603 18.8956 4.12721C 18.4202 3.20305 17.8088 2.36552 17.0756 1.63311L 17.3307 1.24423C 17.4586 1.04911 17.4727 0.800592 17.3677 0.592285C 17.2628 0.383926 17.0546 0.247362 16.8217 0.234233L 14.0081 0.074336C 13.7751 0.0613104 13.553 0.173054 13.425 0.368131C 13.2971 0.563157 13.2829 0.811618 13.388 1.02003L 14.656 3.5368C 14.761 3.74511 14.9691 3.88167 15.202 3.8949C 15.4348 3.90823 15.6572 3.79613 15.7851 3.60105L 15.9129 3.40628C 17.0929 4.72003 17.8 6.39464 17.9174 8.17659C 18.2054 12.5423 14.8878 16.3285 10.5221 16.6163C 6.15631 16.9043 2.37026 13.5867 2.08226 9.221C 1.88687 6.25859 3.34293 3.45905 5.88226 1.91449C 6.36857 1.61854 6.52349 0.982285 6.22775 0.496028C 6.02703 0.166028 5.66277 -0.0232025 5.27718 0.00228469C 5.11031 0.0132078 4.95293 0.0631052 4.80913 0.15049C 1.6101 2.09634 -0.224203 5.62398 0.0220023 9.3568C 0.197746 12.0221 1.40093 14.4594 3.40975 16.2196C 5.41857 17.9798 7.99272 18.8525 10.6579 18.6767C 13.3231 18.5009 15.7603 17.2977 17.5206 15.289C 19.2809 13.2801 20.1536 10.7059 19.9778 8.0407Z"/>
    </defs>
</svg>
