<svg width="18" height="16" viewBox="0 0 18 16" version="1.1" xmlns="http://www.w3.org/2000/svg" xmlns:xlink="http://www.w3.org/1999/xlink">
<title>Icon (Left)</title>
<desc>Created using Figma</desc>
<g id="Canvas" transform="translate(-11451 -541)">
<g id="Icon (Left)">
<mask id="mask0_outline" mask-type="alpha">
<g id="Delete Icon">
<use xlink:href="#path0_fill" transform="translate(11451 541)" fill="#FFFFFF"/>
</g>
</mask>
<g id="&#226;&#134;&#179; &#240;&#159;&#142;&#168;Color" mask="url(#mask0_outline)">
<g id="Base">
<use xlink:href="#path1_fill" transform="translate(11451 541)" fill="#A8AAB7"/>
</g>
</g>
</g>
</g>
<defs>
<path id="path0_fill" fill-rule="evenodd" d="M 5.625 1C 5.625 0.447693 6.07227 0 6.625 0L 11.375 0C 11.9277 0 12.375 0.447693 12.375 1L 12.375 3L 13.75 3L 17 3C 17.5527 3 18 3.44769 18 4C 18 4.55231 17.5527 5 17 5L 15.75 5L 15.75 14C 15.75 15.1046 14.8545 16 13.75 16L 4.25 16C 3.14551 16 2.25 15.1046 2.25 14L 2.25 5L 1 5C 0.447266 5 0 4.55231 0 4C 0 3.44769 0.447266 3 1 3L 4.25 3L 5.625 3L 5.625 1ZM 5.5 5C 4.94727 5 4.5 5.44769 4.5 6L 4.5 13C 4.5 13.5523 4.94727 14 5.5 14L 12.5 14C 13.0527 14 13.5 13.5523 13.5 13L 13.5 6C 13.5 5.44769 13.0527 5 12.5 5L 5.5 5ZM 7.875 3L 7.875 2L 10.125 2L 10.125 3L 7.875 3ZM 10.625 7C 10.3486 7 10.125 7.22388 10.125 7.5L 10.125 11.5C 10.125 11.641 10.1836 11.7683 10.2773 11.8592C 10.3672 11.9464 10.4893 12 10.625 12L 10.75 12C 10.8584 12 10.959 11.9657 11.04 11.9074C 11.167 11.8167 11.25 11.668 11.25 11.5L 11.25 7.5C 11.25 7.22388 11.0264 7 10.75 7L 10.625 7ZM 6.75 7.5C 6.75 7.22388 6.97363 7 7.25 7L 7.375 7C 7.65137 7 7.875 7.22388 7.875 7.5L 7.875 11.5C 7.875 11.7761 7.65137 12 7.375 12L 7.25 12C 6.97363 12 6.75 11.7761 6.75 11.5L 6.75 7.5Z"/>
<path id="path1_fill" fill-rule="evenodd" d="M 0 0L 18 0L 18 16L 0 16L 0 0Z"/>
</defs>
</svg>
