<svg width="15" height="10" viewBox="0 0 15 10" fill="none" xmlns="http://www.w3.org/2000/svg">
<path fill-rule="evenodd" clip-rule="evenodd" d="M7.5 0C4.09091 0 1.17955 2.07333 0 5C1.17955 7.92667 4.09091 10 7.5 10C10.9091 10 13.8205 7.92667 15 5C13.8205 2.07333 10.9091 0 7.5 0ZM7.49991 8.33366C5.61809 8.33366 4.09082 6.84033 4.09082 5.00033C4.09082 3.16033 5.61809 1.66699 7.49991 1.66699C9.38173 1.66699 10.909 3.16033 10.909 5.00033C10.909 6.84033 9.38173 8.33366 7.49991 8.33366ZM7.50053 3C6.36871 3 5.45508 3.89333 5.45508 5C5.45508 6.10667 6.36871 7 7.50053 7C8.63235 7 9.54599 6.10667 9.54599 5C9.54599 3.89333 8.63235 3 7.50053 3Z" fill="#C5C5C5"/>
<mask id="mask0" mask-type="alpha" maskUnits="userSpaceOnUse" x="0" y="0" width="15" height="10">
<path fill-rule="evenodd" clip-rule="evenodd" d="M7.5 0C4.09091 0 1.17955 2.07333 0 5C1.17955 7.92667 4.09091 10 7.5 10C10.9091 10 13.8205 7.92667 15 5C13.8205 2.07333 10.9091 0 7.5 0ZM7.49991 8.33366C5.61809 8.33366 4.09082 6.84033 4.09082 5.00033C4.09082 3.16033 5.61809 1.66699 7.49991 1.66699C9.38173 1.66699 10.909 3.16033 10.909 5.00033C10.909 6.84033 9.38173 8.33366 7.49991 8.33366ZM7.50053 3C6.36871 3 5.45508 3.89333 5.45508 5C5.45508 6.10667 6.36871 7 7.50053 7C8.63235 7 9.54599 6.10667 9.54599 5C9.54599 3.89333 8.63235 3 7.50053 3Z" fill="white"/>
</mask>
<g mask="url(#mask0)">
</g>
</svg>
