<svg width="16" height="16" viewBox="0 0 16 16" fill="none" xmlns="http://www.w3.org/2000/svg">
<path d="M0.5 2.50586H4.95357C5.17729 3.36934 5.95618 4.01172 6.88867 4.01172C7.82117 4.01172 8.60006 3.36934 8.82377 2.50586H15.5C15.776 2.50586 16 2.2819 16 2.00586C16 1.72982 15.776 1.50586 15.5 1.50586H8.82377C8.60006 0.642375 7.82117 2.5e-08 6.88867 2.5e-08C5.95618 2.5e-08 5.17729 0.642375 4.95357 1.50586H0.5C0.223958 1.50586 0 1.72982 0 2.00586C0 2.2819 0.223958 2.50586 0.5 2.50586ZM6.88867 1C7.44336 1 7.89453 1.45117 7.89453 2.00586C7.89453 2.56055 7.44336 3.01172 6.88867 3.01172C6.33398 3.01172 5.88281 2.56055 5.88281 2.00586C5.88281 1.45117 6.33398 1 6.88867 1Z" transform="translate(0 2)" fill="white"/>
<path d="M15.5 1.50586H14.4292C14.2055 0.642375 13.4266 2.5e-08 12.4941 2.5e-08C11.5616 2.5e-08 10.7828 0.642375 10.559 1.50586H0.5C0.223958 1.50586 0 1.72982 0 2.00586C0 2.2819 0.223958 2.50586 0.5 2.50586H10.559C10.7828 3.36934 11.5616 4.01172 12.4941 4.01172C13.4266 4.01172 14.2055 3.36934 14.4292 2.50586H15.5C15.776 2.50586 16 2.2819 16 2.00586C16 1.72982 15.776 1.50586 15.5 1.50586ZM12.4941 3.01172C11.9395 3.01172 11.4883 2.56055 11.4883 2.00586C11.4883 1.45117 11.9395 1 12.4941 1C13.0488 1 13.5 1.45117 13.5 2.00586C13.5 2.56055 13.0488 3.01172 12.4941 3.01172Z" transform="translate(0 6)" fill="white"/>
<path d="M15.5 1.50586H5.81209C5.58842 0.642375 4.80957 2.5e-08 3.8776 2.5e-08C2.94511 2.5e-08 2.16622 0.642375 1.9425 1.50586H0.5C0.223958 1.50586 0 1.72982 0 2.00586C0 2.2819 0.223958 2.50586 0.5 2.50586H1.9425C2.16622 3.36934 2.94511 4.01172 3.8776 4.01172C4.80957 4.01172 5.58842 3.36934 5.81209 2.50586H15.5C15.776 2.50586 16 2.2819 16 2.00586C16 1.72982 15.776 1.50586 15.5 1.50586ZM3.8776 3.01172C3.32292 3.01172 2.87174 2.56055 2.87174 2.00586C2.87174 1.45117 3.32292 1 3.8776 1C4.43164 1 4.88281 1.45117 4.88281 2.00586C4.88281 2.56055 4.43164 3.01172 3.8776 3.01172Z" transform="translate(0 10)" fill="white"/>
</svg>
