<svg width="88" height="8" viewBox="0 0 88 8" fill="none" xmlns="http://www.w3.org/2000/svg">
    <mask id="mask0" mask-type="alpha" maskUnits="userSpaceOnUse" x="0" y="0" width="88" height="9">
        <path d="M0 3.60123C0 1.37007 1.80272 0.00311807 4.00984 0.00311807C5.36029 -0.0532886 6.61731 0.65959 7.21087 1.81848L5.33981 2.72616C5.10279 2.2157 4.58039 1.87984 3.9956 1.86196C2.9874 1.86196 2.1701 2.64187 2.1701 3.60394C2.1701 4.56602 2.9874 5.34593 3.9956 5.34593V5.34593C4.3985 5.34566 4.79322 5.23737 5.13476 5.0334V4.7861H3.7934V2.95172H7.33333V5.79162C6.49404 6.70613 5.27501 7.22115 4.00129 7.19933C1.80272 7.19933 0 5.82151 0 3.60123Z"
              transform="translate(0.611084 0.800049)" fill="#333F51"/>
        <path d="M0 4.176V0H2.18611V4.10123C2.18611 4.78246 2.63333 5.32246 3.51944 5.32246C4.40556 5.32246 4.84167 4.76862 4.84167 4.10123V0H7.02778V4.15385C7.02778 5.91785 5.91667 7.2 3.52222 7.2C1.12778 7.2 0 5.92892 0 4.176Z"
              transform="translate(9.16663 0.800049)" fill="#333F51"/>
        <path fill-rule="evenodd" clip-rule="evenodd"
              d="M5.45203 6.3562L5.71716 7.19995H8.25L5.52979 0H2.72021L0 7.19995H2.53296L2.7981 6.3562H5.45203ZM3.39453 4.45789L4.12354 2.13757L4.85266 4.45789H3.39453Z"
              transform="translate(17.4166 0.800049)" fill="#333F51"/>
        <path fill-rule="evenodd" clip-rule="evenodd"
              d="M2.95764 4.93311L3.94629 7.19995H6.41663L5.11707 4.65186C5.93872 4.24585 6.44409 3.39087 6.40552 2.47217C6.40552 1.125 5.50635 0 3.82593 0H0V7.19995H2.17346V4.93311H2.95764ZM3.49536 1.89844C3.85767 1.89844 4.20068 2.07104 4.20398 2.45532C4.20068 2.8645 3.85767 3.03186 3.50098 3.02344H2.17334V1.89844H3.49536ZM4.20398 2.45532C4.20398 2.45715 4.20398 2.45911 4.20398 2.46094V2.44971C4.20398 2.45166 4.20398 2.45337 4.20398 2.45532Z"
              transform="translate(26.8889 0.800049)" fill="#333F51"/>
        <path d="M4.90091 7.2L2.20955 3.54375V7.2H0V0H2.28082L4.81823 3.41156V0H7.02778V7.2H4.90091Z"
              transform="translate(44 0.800049)" fill="#333F51"/>
        <path fill-rule="evenodd" clip-rule="evenodd"
              d="M5.45203 6.3562L5.71704 7.19995H8.25L5.52979 0H2.72021L0 7.19995H2.53296L2.79797 6.3562H5.45203ZM3.39441 4.45789L4.12341 2.13757L4.85535 4.45789H3.39441Z"
              transform="translate(34.5278 0.800049)" fill="#333F51"/>
        <path d="M1.95727 7.2V1.89548H0V0H6.11112V1.89548H4.16525V7.18596L1.95727 7.2Z"
              transform="translate(52.25 0.800049)" fill="#333F51"/>
        <path fill-rule="evenodd" clip-rule="evenodd"
              d="M5.45386 6.3562L5.71912 7.19995H8.25L5.52881 0H2.72119L0 7.19995H2.53381L2.79895 6.3562H5.45386ZM3.39575 4.45789L4.125 2.13757L4.85718 4.45789H3.39575Z"
              transform="translate(70.8889 0.800049)" fill="#333F51"/>
        <path d="M2.72736 7.2V4.33969L0 0H2.47709L3.83082 2.42719L5.16179 0H7.63888L4.93143 4.33969V7.2H2.72736Z"
              transform="translate(80.3611 0.800049)" fill="#333F51"/>
        <path fill-rule="evenodd" clip-rule="evenodd"
              d="M0 0V7.19995H2.17444V4.93311H3.83264C5.51318 4.93311 6.41663 3.81934 6.41663 2.47217C6.41663 1.125 5.51599 0 3.83264 0H0ZM3.552 1.90967C3.92798 1.90967 4.20862 2.08398 4.20862 2.47217H4.21143C4.21143 2.86316 3.91956 3.03467 3.552 3.03467H2.17444V1.90967H3.552Z"
              transform="translate(63.25 0.800049)" fill="#333F51"/>
    </mask>
    <g mask="url(#mask0)">
        <path fill-rule="evenodd" clip-rule="evenodd" d="M0 0H88V7H0V0Z" transform="translate(0 0.800049)"
              fill="#333F52"/>
    </g>
</svg>
