<svg fill="#fff" version="1.1" id="Capa_1" xmlns="http://www.w3.org/2000/svg" xmlns:xlink="http://www.w3.org/1999/xlink" x="0px" y="0px"
	 viewBox="0 0 486.4 486.4" style="enable-background:new 0 0 486.4 486.4;" xml:space="preserve">
<g>
	<g>
		<path d="M435.2,348.16h-3.584v-49.152c0-44.032-35.328-79.36-79.36-79.36h-89.6V138.24H366.08c26.624,0,48.64-22.016,48.64-48.64
			V48.64C414.72,22.016,392.704,0,366.08,0H120.32C93.696,0,71.68,22.016,71.68,48.64V89.6c0,26.624,22.016,48.64,48.64,48.64
			h106.496v81.408h-92.672c-44.032,0-79.36,35.328-79.36,79.36v49.152H51.2c-26.624,0-48.64,22.016-48.64,48.64v40.96
			c0,26.624,22.016,48.64,48.64,48.64h40.96c26.624,0,48.64-22.016,48.64-48.64V396.8c0-26.624-22.016-48.64-48.64-48.64h-1.536
			v-49.152c0-24.064,19.456-43.52,43.52-43.52h92.672v92.672h-4.096c-26.624,0-48.64,22.016-48.64,48.64v40.96
			c0,26.624,22.016,48.64,48.64,48.64h40.96c26.624,0,48.64-22.016,48.64-48.64V396.8c0-26.624-22.016-48.64-48.64-48.64h-1.024
			v-92.672h89.6c24.064,0,43.52,19.456,43.52,43.52v49.152h-1.536c-26.624,0-48.64,22.016-48.64,48.64v40.96
			c0,26.624,22.016,48.64,48.64,48.64h40.96c26.624,0,48.64-22.016,48.64-48.64V396.8C483.84,370.176,461.824,348.16,435.2,348.16z"
			/>
	</g>
</g>
<g>
</g>
<g>
</g>
<g>
</g>
<g>
</g>
<g>
</g>
<g>
</g>
<g>
</g>
<g>
</g>
<g>
</g>
<g>
</g>
<g>
</g>
<g>
</g>
<g>
</g>
<g>
</g>
<g>
</g>
</svg>
