<svg width="16" height="16" viewBox="0 0 16 16" fill="none" xmlns="http://www.w3.org/2000/svg">
    <path fill-rule="evenodd" clip-rule="evenodd"
          d="M3.2425 5.77825C2.8515 6.16925 2.2185 6.16925 1.8285 5.77825L0.2925 4.24325C-0.0975 3.85225 -0.0975 3.21925 0.2925 2.82825C0.6835 2.43825 1.3165 2.43825 1.7065 2.82825L2.5355 3.65725L5.8995 0.29325C6.2895 -0.09775 6.9225 -0.09775 7.3135 0.29325C7.7045 0.68325 7.7045 1.31625 7.3135 1.70725L3.2425 5.77825Z"
          transform="translate(4.19678 5.23193)" fill="#A8AAB7"/>
    <mask id="mask0" mask-type="alpha" maskUnits="userSpaceOnUse" x="4" y="5" width="8" height="7">
        <path fill-rule="evenodd" clip-rule="evenodd"
              d="M3.2425 5.77825C2.8515 6.16925 2.2185 6.16925 1.8285 5.77825L0.2925 4.24325C-0.0975 3.85225 -0.0975 3.21925 0.2925 2.82825C0.6835 2.43825 1.3165 2.43825 1.7065 2.82825L2.5355 3.65725L5.8995 0.29325C6.2895 -0.09775 6.9225 -0.09775 7.3135 0.29325C7.7045 0.68325 7.7045 1.31625 7.3135 1.70725L3.2425 5.77825Z"
              transform="translate(4.19678 5.23193)" fill="white"/>
    </mask>
    <g mask="url(#mask0)">
        <path fill-rule="evenodd" clip-rule="evenodd" d="M0 0H16V16H0V0Z" fill="#09C199"/>
    </g>
</svg>
