<svg width="36" height="36" viewBox="0 0 36 36" fill="none" xmlns="http://www.w3.org/2000/svg">
    <mask id="mask0" mask-type="alpha" maskUnits="userSpaceOnUse" x="0" y="0" width="36" height="36">
        <path fill-rule="evenodd" clip-rule="evenodd" d="M18 36C8.05725 36 0 27.9404 0 18C0 8.05957 8.05725 0 18 0C27.9405 0 36 8.05957 36 18C36 27.9404 27.9405 36 18 36ZM18.0157 21.1724L20.9587 24.1157C21.8295 24.9863 23.2448 24.9863 24.1155 24.1157C24.9885 23.2446 24.9885 21.8296 24.1155 20.959L21.1725 18.0156L24.1155 15.0703C24.9863 14.1997 24.9863 12.7866 24.1155 11.9136C23.2425 11.0405 21.8295 11.0405 20.9587 11.9136L18.0157 14.8569L15.0615 11.9048C14.1907 11.0317 12.7755 11.0317 11.9047 11.9048C11.0317 12.7754 11.0317 14.1885 11.9047 15.0615L14.8568 18.0137L11.9047 20.9678C11.0317 21.8408 11.0317 23.2539 11.9047 24.1245C12.7755 24.9976 14.1907 24.9976 15.0615 24.1245L18.0157 21.1724Z" fill="white"/>
    </mask>
    <g mask="url(#mask0)">
        <path fill-rule="evenodd" clip-rule="evenodd" d="M0 0H36V36H0V0Z" fill="#F85359"/>
    </g>
</svg>