<svg width="1236" height="828" viewBox="0 0 1236 828" fill="none" xmlns="http://www.w3.org/2000/svg">
<path d="M60.2913 0.5H767.709C800.717 0.5 827.5 28.0242 827.5 62.0067V1173.99C827.5 1207.98 800.717 1235.5 767.709 1235.5H60.2913C27.2826 1235.5 0.5 1207.98 0.5 1173.99V62.0067C0.5 28.0242 27.2826 0.5 60.2913 0.5Z" transform="translate(0 828) rotate(-90)" fill="white"/>
<path d="M60.2913 0.5H767.709C800.717 0.5 827.5 28.0242 827.5 62.0067V1173.99C827.5 1207.98 800.717 1235.5 767.709 1235.5H60.2913C27.2826 1235.5 0.5 1207.98 0.5 1173.99V62.0067C0.5 28.0242 27.2826 0.5 60.2913 0.5Z" transform="translate(0 828) rotate(-90)" fill="url(#paint0_linear)"/>
<path d="M60.2913 0.5H767.709C800.717 0.5 827.5 28.0242 827.5 62.0067V1173.99C827.5 1207.98 800.717 1235.5 767.709 1235.5H60.2913C27.2826 1235.5 0.5 1207.98 0.5 1173.99V62.0067C0.5 28.0242 27.2826 0.5 60.2913 0.5Z" transform="translate(0 828) rotate(-90)" stroke="#CACCD7"/>
<path d="M8 15.5C3.85786 15.5 0.5 12.1421 0.5 8C0.5 3.85786 3.85786 0.5 8 0.5C12.1421 0.5 15.5 3.85786 15.5 8C15.5 12.1421 12.1421 15.5 8 15.5Z" transform="translate(54 422) rotate(-90)" fill="url(#paint1_linear)" stroke="url(#paint2_linear)"/>
<path fill-rule="evenodd" clip-rule="evenodd" d="M0 30C0 46.5684 13.4316 59.9998 30 59.9998C46.5684 59.9998 60 46.5684 60 30C60 13.4314 46.5684 0 30 0C13.4316 0 0 13.4314 0 30ZM56.8403 29.999C56.8403 44.8235 44.8228 56.8411 29.9985 56.8411C15.1738 56.8411 3.15625 44.8235 3.15625 29.999C3.15625 15.1746 15.1738 3.15698 29.9985 3.15698C44.8228 3.15698 56.8403 15.1746 56.8403 29.999Z" transform="translate(1156 444) rotate(-90)" fill="url(#paint3_linear)"/>
<path fill-rule="evenodd" clip-rule="evenodd" d="M0 30C0 46.5684 13.4316 59.9998 30 59.9998C46.5684 59.9998 60 46.5684 60 30C60 13.4314 46.5684 0 30 0C13.4316 0 0 13.4314 0 30ZM56.8403 29.999C56.8403 44.8235 44.8228 56.8411 29.9985 56.8411C15.1738 56.8411 3.15625 44.8235 3.15625 29.999C3.15625 15.1746 15.1738 3.15698 29.9985 3.15698C44.8228 3.15698 56.8403 15.1746 56.8403 29.999Z" transform="translate(1156 444) rotate(-90)" fill="url(#paint4_linear)"/>
<rect width="1024" height="768" fill="#212529" transform="translate(112 30)"/>
<defs>
<linearGradient id="paint0_linear" x2="1" gradientUnits="userSpaceOnUse" gradientTransform="translate(-90.9036 195.246) scale(876.482 1308.37) rotate(28.4858)">
<stop stop-color="#F1F1F2"/>
<stop offset="1" stop-color="white"/>
</linearGradient>
<linearGradient id="paint1_linear" x2="1" gradientUnits="userSpaceOnUse" gradientTransform="translate(8) scale(15.8453) rotate(90)">
<stop/>
<stop offset="1" stop-color="#585656"/>
</linearGradient>
<linearGradient id="paint2_linear" x2="1" gradientUnits="userSpaceOnUse" gradientTransform="translate(8) scale(15.7229) rotate(90)">
<stop/>
<stop offset="1" stop-color="#333232"/>
</linearGradient>
<linearGradient id="paint3_linear" x2="1" gradientUnits="userSpaceOnUse" gradientTransform="translate(30) scale(59.4859) rotate(80.7345)">
<stop stop-color="#24292F"/>
<stop offset="1" stop-color="#85909F"/>
</linearGradient>
<linearGradient id="paint4_linear" x2="1" gradientUnits="userSpaceOnUse" gradientTransform="translate(30) scale(59.4859) rotate(80.7345)">
<stop stop-color="#24292F"/>
<stop offset="1" stop-color="#85909F"/>
</linearGradient>
</defs>
</svg>
