<svg width="36" height="36" viewBox="0 0 38 38" fill="none" xmlns="http://www.w3.org/2000/svg">
<mask id="mask0" mask-type="alpha" maskUnits="userSpaceOnUse" x="0" y="0" width="36" height="36">
<path fill-rule="evenodd" clip-rule="evenodd" d="M0 18C0 8.05957 8.05725 0 18 0C27.9406 0 36 8.05957 36 18C36 27.9404 27.9406 36 18 36C8.05725 36 0 27.9404 0 18ZM13.5569 24.7734C14.4343 25.6533 15.8586 25.6533 16.7384 24.7734L25.8981 15.6143C26.7778 14.7344 26.7778 13.3096 25.8981 12.4326C25.0184 11.5527 23.5941 11.5527 22.7167 12.4326L15.1476 20.001L13.2823 18.1357C12.4049 17.2588 10.9806 17.2588 10.1008 18.1357C9.22339 19.0156 9.22339 20.4404 10.1008 21.3193L13.5569 24.7734Z" fill="white"/>
</mask>
<g mask="url(#mask0)">
<path fill-rule="evenodd" clip-rule="evenodd" d="M0 0H36V36H0V0Z" fill="#09C199"/>
</g>
</svg>