<svg width="20" height="20" viewBox="0 0 16 16" version="1.1" xmlns="http://www.w3.org/2000/svg" xmlns:xlink="http://www.w3.org/1999/xlink">
    <title>Icon (Left)</title>
    <desc>Created using Figma</desc>
    <g id="Canvas" transform="translate(-1329 -489)">
        <g id="Icon (Left)">
            <mask id="mask0_outline" mask-type="alpha">
                <g id="Positive Icon">
                    <use xlink:href="#path0_fill" transform="translate(1329 489)" fill="#FFFFFF"/>
                </g>
            </mask>
            <g id="UI/Color/Flat/Secondary" mask="url(#mask0_outline)">
                <g id="Base">
                    <use xlink:href="#path1_fill" transform="translate(1329 489)" fill="#09C199"/>
                </g>
            </g>
        </g>
    </g>
    <defs>
        <path id="path0_fill" fill-rule="evenodd" d="M 0 8C 0 3.582 3.58105 0 8 0C 12.418 0 16 3.582 16 8C 16 12.418 12.418 16 8 16C 3.58105 16 0 12.418 0 8ZM 6.02527 11.0103C 6.41528 11.4013 7.04822 11.4013 7.43933 11.0103L 11.5103 6.9393C 11.9012 6.54831 11.9012 5.91531 11.5103 5.5253C 11.1193 5.13431 10.4863 5.13431 10.0963 5.5253L 6.7323 8.88931L 5.90332 8.0603C 5.51331 7.67032 4.88025 7.67032 4.48926 8.0603C 4.09924 8.45129 4.09924 9.08432 4.48926 9.47531L 6.02527 11.0103Z"/>
        <path id="path1_fill" fill-rule="evenodd" d="M 0 0L 16 0L 16 16L 0 16L 0 0Z"/>
    </defs>
</svg>
