<svg class="lds-spinner" width="200px" height="200px" xmlns="http://www.w3.org/2000/svg" xmlns:xlink="http://www.w3.org/1999/xlink" viewBox="0 0 100 100" preserveAspectRatio="xMidYMid"><g transform="rotate(0 50 50)">
  <rect x="47.5" y="28" rx="5.7" ry="3.36" width="5" height="12" fill="#a8aab7" opacity="0.083333333333333">
  </rect>
</g><g transform="rotate(30 50 50)">
  <rect x="47.5" y="28" rx="5.7" ry="3.36" width="5" height="12" fill="#a8aab7" opacity="0.166666666666667">
  </rect>
</g><g transform="rotate(60 50 50)">
  <rect x="47.5" y="28" rx="5.7" ry="3.36" width="5" height="12" fill="#a8aab7" opacity="0.25">
  </rect>
</g><g transform="rotate(90 50 50)">
  <rect x="47.5" y="28" rx="5.7" ry="3.36" width="5" height="12" fill="#a8aab7" opacity="0.333333333333333">
  </rect>
</g><g transform="rotate(120 50 50)">
  <rect x="47.5" y="28" rx="5.7" ry="3.36" width="5" height="12" fill="#a8aab7" opacity="0.416666666666667">
  </rect>
</g><g transform="rotate(150 50 50)">
  <rect x="47.5" y="28" rx="5.7" ry="3.36" width="5" height="12" fill="#a8aab7" opacity="0.5">
  </rect>
</g><g transform="rotate(180 50 50)">
  <rect x="47.5" y="28" rx="5.7" ry="3.36" width="5" height="12" fill="#a8aab7" opacity="0.583333333333333">
  </rect>
</g><g transform="rotate(210 50 50)">
  <rect x="47.5" y="28" rx="5.7" ry="3.36" width="5" height="12" fill="#a8aab7" opacity=" 0.666666666666667">
  </rect>
</g><g transform="rotate(240 50 50)">
  <rect x="47.5" y="28" rx="5.7" ry="3.36" width="5" height="12" fill="#a8aab7" opacity="0.75 ">
  </rect>
</g><g transform="rotate(270 50 50)">
  <rect x="47.5" y="28" rx="5.7" ry="3.36" width="5" height="12" fill="#a8aab7" opacity="0.833333333333333">
  </rect>
</g><g transform="rotate(300 50 50)">
  <rect x="47.5" y="28" rx="5.7" ry="3.36" width="5" height="12" fill="#a8aab7" opacity="0.916666666666667">
  </rect>
</g><g transform="rotate(330 50 50)">
  <rect x="47.5" y="28" rx="5.7" ry="3.36" width="5" height="12" fill="#a8aab7" opacity="1">
  </rect>
</g></svg>