<?xml version="1.0" encoding="iso-8859-1"?>
<!-- Generator: Adobe Illustrator 19.0.0, SVG Export Plug-In . SVG Version: 6.00 Build 0)  -->
<svg fill="#ffffff" opacity="0.5"  xmlns="http://www.w3.org/2000/svg" xmlns:xlink="http://www.w3.org/1999/xlink" version="1.1" id="Capa_1" x="0px" y="0px" viewBox="0 0 256 256" style="enable-background:new 0 0 256 256;" xml:space="preserve" width="8px" height="8px">
<g>
	<g>
		<polygon points="225.813,48.907 128,146.72 30.187,48.907 0,79.093 128,207.093 256,79.093 "/>
	</g>
</g>
</svg>
