<svg width="7" height="9" viewBox="0 0 7 9" fill="none" xmlns="http://www.w3.org/2000/svg">
<path fill-rule="evenodd" clip-rule="evenodd" d="M4.51758 1.56055V2.94154H5.89858L4.51758 1.56055ZM4.02007 2.94122V1.44434H0.776824C0.639111 1.44434 0.527344 1.55598 0.527344 1.69407V8.18018C0.527344 8.31839 0.639111 8.42978 0.776824 8.42978H5.76643C5.90414 8.42978 6.01591 8.31839 6.01591 8.18018V3.44055H4.51903H4.02007V2.94122ZM6.51383 2.94203V2.94215V8.67945C6.51383 8.81741 6.40206 8.92893 6.26435 8.92893H0.276824C0.139111 8.92893 0.0273438 8.81741 0.0273438 8.67945V1.19517C0.0273438 1.05695 0.139111 0.945312 0.276824 0.945312H4.51799V0.946186V0.946061L6.51308 2.94128H6.51383V2.94203Z" fill="#1863A4"/>
</svg>
