<svg width="20" height="20" viewBox="0 0 20 20" fill="none" xmlns="http://www.w3.org/2000/svg">
<rect width="20" height="20" fill="black" fill-opacity="0"/>
<path fill-rule="evenodd" clip-rule="evenodd" d="M11.4468 4.16699C10.7031 4.16699 9.95922 4.47328 9.3905 5.02737L5.33642 8.99404C3.77588 10.5544 3.77588 13.0774 5.33642 14.6524C6.89679 16.2129 9.41975 16.2129 10.9947 14.6524L12.8177 12.8296L11.8114 11.8233L10.1197 13.4711L9.98846 13.6607C8.98217 14.667 7.34884 14.667 6.34255 13.6607C5.35104 12.669 5.38013 11.0649 6.34255 10.0587L10.3968 6.04828C10.9655 5.47957 11.9135 5.47957 12.4968 6.04828C13.0655 6.61699 13.0364 7.52108 12.4968 8.10441L8.85104 11.7066C8.70513 11.8524 8.45717 11.8524 8.29679 11.7066C8.15104 11.5607 8.15104 11.3129 8.29679 11.1524L8.38437 11.1087L9.71142 9.73775L8.70513 8.73161L7.2905 10.1462C6.5905 10.8462 6.5905 11.9983 7.2905 12.6983C7.9905 13.3983 9.14255 13.4129 9.84255 12.6983L13.4885 9.13995C14.6259 8.00237 14.6259 6.16495 13.4885 5.04199C12.9197 4.47328 12.1905 4.18161 11.4322 4.18161L11.4468 4.16699Z" fill="#1863A4"/>
</svg>
