<svg width="16" height="16" viewBox="0 0 16 16" fill="none" xmlns="http://www.w3.org/2000/svg">
<rect width="16" height="16" fill="black" fill-opacity="0"/>
<rect width="16" height="16" fill="black" fill-opacity="0"/>
<path fill-rule="evenodd" clip-rule="evenodd" d="M14 6C14 3.79102 12.209 2 10 2C8.38867 2 6.99805 2.95312 6.36523 4.32812C5.95508 4.11914 5.49219 4 5 4C3.38477 4 2.06641 5.27734 2.00195 6.87695C1.59375 7.02148 1.22656 7.25 0.921875 7.54297C0.65625 7.79883 0.4375 8.10156 0.28125 8.43945C0.101562 8.82422 0 9.25391 0 9.70703C0 11.3633 1.34375 12.707 3 12.707H13C14.6562 12.707 16 11.3633 16 9.70703C16 9.12109 15.832 8.57422 15.541 8.11133C15.168 7.51758 14.5918 7.06445 13.9102 6.84766C13.9375 6.71875 13.959 6.58789 13.9727 6.45703C13.9824 6.375 13.9902 6.29297 13.9941 6.21094L14 6ZM8.20117 6.08398C8.08984 5.9707 7.91016 5.9707 7.79883 6.08398L6.08203 7.83594C5.97266 7.95117 5.97266 8.13477 6.08203 8.25L6.48242 8.66602C6.59375 8.7793 6.77148 8.7793 6.88281 8.66602L7.16992 8.36914C7.21484 8.33008 7.2793 8.32031 7.33398 8.3457C7.38867 8.37109 7.42578 8.42578 7.42773 8.48828V10.4473C7.42188 10.5273 7.45117 10.6055 7.50586 10.6621C7.56055 10.7188 7.63672 10.748 7.71289 10.7441H8.28711C8.36328 10.748 8.43945 10.7188 8.49414 10.6621C8.54883 10.6055 8.57812 10.5273 8.57227 10.4473V8.51758C8.57227 8.45508 8.60938 8.39844 8.66406 8.37305C8.7207 8.3457 8.78516 8.35742 8.83008 8.39844L9.11719 8.69531C9.22852 8.80859 9.40625 8.80859 9.51758 8.69531L9.91797 8.28125C10.0273 8.16602 10.0273 7.98047 9.91797 7.86523L8.20117 6.08398Z" fill="#1085E0"/>
<mask id="mask0" mask-type="alpha" maskUnits="userSpaceOnUse" x="0" y="2" width="16" height="11">
<path fill-rule="evenodd" clip-rule="evenodd" d="M14 6C14 3.79102 12.209 2 10 2C8.38867 2 6.99805 2.95312 6.36523 4.32812C5.95508 4.11914 5.49219 4 5 4C3.38477 4 2.06641 5.27734 2.00195 6.87695C1.59375 7.02148 1.22656 7.25 0.921875 7.54297C0.65625 7.79883 0.4375 8.10156 0.28125 8.43945C0.101562 8.82422 0 9.25391 0 9.70703C0 11.3633 1.34375 12.707 3 12.707H13C14.6562 12.707 16 11.3633 16 9.70703C16 9.12109 15.832 8.57422 15.541 8.11133C15.168 7.51758 14.5918 7.06445 13.9102 6.84766C13.9375 6.71875 13.959 6.58789 13.9727 6.45703C13.9824 6.375 13.9902 6.29297 13.9941 6.21094L14 6ZM8.20117 6.08398C8.08984 5.9707 7.91016 5.9707 7.79883 6.08398L6.08203 7.83594C5.97266 7.95117 5.97266 8.13477 6.08203 8.25L6.48242 8.66602C6.59375 8.7793 6.77148 8.7793 6.88281 8.66602L7.16992 8.36914C7.21484 8.33008 7.2793 8.32031 7.33398 8.3457C7.38867 8.37109 7.42578 8.42578 7.42773 8.48828V10.4473C7.42188 10.5273 7.45117 10.6055 7.50586 10.6621C7.56055 10.7188 7.63672 10.748 7.71289 10.7441H8.28711C8.36328 10.748 8.43945 10.7188 8.49414 10.6621C8.54883 10.6055 8.57812 10.5273 8.57227 10.4473V8.51758C8.57227 8.45508 8.60938 8.39844 8.66406 8.37305C8.7207 8.3457 8.78516 8.35742 8.83008 8.39844L9.11719 8.69531C9.22852 8.80859 9.40625 8.80859 9.51758 8.69531L9.91797 8.28125C10.0273 8.16602 10.0273 7.98047 9.91797 7.86523L8.20117 6.08398Z" fill="white"/>
</mask>
<g mask="url(#mask0)">
<rect width="16" height="16" fill="black" fill-opacity="0"/>
<path fill-rule="evenodd" clip-rule="evenodd" d="M0 0H16V16H0V0Z" fill="#1991EB"/>
</g>
</svg>
