<svg width="78" height="40" viewBox="0 0 78 40" fill="none" xmlns="http://www.w3.org/2000/svg">
<path d="M73.8943 21.5979L78 19.1976V6.3992L67.0579 0.00461674L62.9537 2.40336L73.8943 8.7964V21.5979ZM43.8184 21.5933L39.7141 19.193V6.39458L50.6562 0L54.7589 2.40028L43.8184 8.79332V21.5933ZM69.8037 28.8002V33.6008L58.8677 40L47.9332 33.5916V28.7926L58.8677 35.201L69.8037 28.8002Z" fill="#86909B"/>
<path d="M46.5582 24.8016V10.3954L58.8511 3.19453L71.1623 10.3984V24.7986L58.8617 31.9963L46.5582 24.8016ZM50.6609 11.2001L58.8617 16.0006L67.0641 11.1985L58.8617 6.39644L50.6609 11.2001ZM57.4927 27.9851V18.3871L49.2918 13.5896V23.1907L57.4927 27.9851ZM68.4165 13.605L60.2141 18.4055L60.2202 28.002L68.4226 23.2045L68.4165 13.605Z" fill="#86909B"/>
<path d="M0 6.42547H5.40198C9.25424 6.42547 11.5568 8.79651 11.5568 12.74C11.5568 16.9144 9.21933 19.1623 5.40198 19.1623H0V6.42547ZM3.17076 16.4082H4.71895C7.20213 16.3558 8.38604 15.2742 8.38604 12.7216C8.38604 10.4044 6.95776 9.17963 4.71895 9.17963H3.17076V16.4082ZM13.2264 6.42547H19.3934C21.7324 6.42547 23.9347 7.51329 23.9347 10.5275C23.9347 13.6848 22.1574 14.9157 19.3934 14.9157H16.4032V19.1623H13.2264V6.42547ZM16.4032 12.4492H18.9046C19.9201 12.4492 20.7579 11.92 20.7579 10.7598C20.7579 9.56583 19.9019 8.98115 18.9046 8.98115H16.4032V12.4492ZM25.7531 6.42547H31.1536C35.0134 6.42547 37.3145 8.79651 37.3145 12.74C37.3145 16.9144 34.977 19.1623 31.1536 19.1623H25.7531V6.42547ZM28.9284 16.4082H30.4781C32.9598 16.3558 34.1452 15.2742 34.1452 12.7216C34.1452 10.4044 32.7093 9.17963 30.4781 9.17963H28.9284V16.4082Z" fill="#86909B"/>
</svg>
