<svg width="53" height="20" viewBox="0 0 53 20" fill="none" xmlns="http://www.w3.org/2000/svg">
<path fill-rule="evenodd" clip-rule="evenodd" d="M5.29682 0.0306892H21.2933C22.522 0.0306892 23.518 1.07696 23.518 2.36766L20.4458 17.5882C20.4458 18.8789 19.4498 19.9252 18.2212 19.9252H2.2247C0.996043 19.9252 0 18.8789 0 17.5882L3.07224 2.36766C3.07224 1.07696 4.06816 0.0306892 5.29682 0.0306892ZM19.36 5.86042L4.15803 12.8713L9.08408 14.0955L19.36 5.86042ZM8.13067 9.97791L4.15803 8.08605L18.0358 6.13862L8.13067 9.97791Z" fill="#86909B"/>
<path d="M31.1244 4.87964L32.5707 5.10965C32.2884 5.93253 31.8647 6.56111 31.3002 6.9963C30.7358 7.431 30.0745 7.64832 29.3164 7.64832C28.4631 7.64832 27.7964 7.37836 27.316 6.83849C26.8355 6.29906 26.5951 5.51608 26.5951 4.48979C26.5951 3.65689 26.7561 2.89481 27.078 2.2032C27.4 1.51202 27.8465 0.983413 28.4171 0.616512C28.9882 0.250106 29.6098 0.067057 30.2822 0.067057C31.037 0.067057 31.6478 0.279242 32.1138 0.704356C32.5802 1.12904 32.8545 1.70806 32.9368 2.441L31.5621 2.58056C31.486 2.15452 31.3391 1.84546 31.1218 1.65375C30.9045 1.46204 30.6154 1.3664 30.2537 1.3664C29.8573 1.3664 29.4868 1.49291 29.143 1.74635C28.7987 1.99937 28.5235 2.39491 28.3174 2.93311C28.1114 3.4713 28.0083 4.00857 28.0083 4.54497C28.0083 5.13142 28.1419 5.58437 28.4101 5.90432C28.6783 6.22377 29.0122 6.38375 29.4116 6.38375C29.7828 6.38375 30.123 6.2573 30.432 6.00429C30.7412 5.75084 30.972 5.37615 31.1244 4.87964Z" fill="#86909B"/>
<path d="M29.3165 7.71514C28.4491 7.71514 27.7605 7.43521 27.2697 6.88402C26.7798 6.33407 26.5315 5.52864 26.5315 4.48967C26.5315 3.65064 26.6962 2.87125 27.021 2.17394C27.3467 1.47491 27.8052 0.931574 28.3841 0.559477C28.9623 0.188245 29.6012 0 30.2823 0C31.0499 0 31.6802 0.21998 32.1557 0.653816C32.632 1.08765 32.9162 1.68622 33.0003 2.43302L33.0077 2.50088L31.5106 2.65257L31.4998 2.59256C31.4269 2.1844 31.2858 1.8853 31.081 1.70491C30.8766 1.52452 30.5985 1.43321 30.2538 1.43321C29.8722 1.43321 29.511 1.55669 29.1795 1.80098C28.8472 2.04533 28.577 2.43438 28.3763 2.95779C28.1743 3.48547 28.0722 4.01971 28.0722 4.54485C28.0722 5.11212 28.2017 5.55468 28.4578 5.85984C28.7123 6.16327 29.033 6.31669 29.4116 6.31669C29.7667 6.31669 30.0969 6.19414 30.3932 5.95158C30.6908 5.70723 30.9163 5.3399 31.064 4.85911L31.0806 4.80529L32.6568 5.05564L32.6307 5.13216C32.3456 5.96328 31.9107 6.60837 31.338 7.05006C30.7649 7.49126 30.0849 7.71514 29.3165 7.71514ZM30.2823 0.133869C29.6248 0.133869 29.0085 0.315123 28.4503 0.673302C27.8925 1.03198 27.4502 1.55669 27.1352 2.23265C26.8191 2.91164 26.6589 3.67112 26.6589 4.48967C26.6589 5.49337 26.8957 6.26844 27.3624 6.79272C27.8284 7.31607 28.4856 7.58127 29.3165 7.58127C30.0572 7.58127 30.7118 7.36655 31.2626 6.94224C31.7969 6.53061 32.2078 5.93204 32.4842 5.16341L31.1679 4.95388C31.0123 5.43467 30.778 5.80547 30.4711 6.05675C30.152 6.31799 29.7957 6.45062 29.4116 6.45062C28.9949 6.45062 28.642 6.28149 28.3627 5.94849C28.0854 5.61772 27.9447 5.14559 27.9447 4.54485C27.9447 4.00232 28.0502 3.45157 28.2584 2.90818C28.4682 2.36002 28.7537 1.95093 29.1067 1.69142C29.4596 1.43148 29.8454 1.29934 30.2538 1.29934C30.6291 1.29934 30.9349 1.40148 31.1629 1.60234C31.3802 1.79448 31.5316 2.09878 31.6136 2.50824L32.8658 2.38087C32.7764 1.70014 32.5095 1.15285 32.0721 0.75465C31.6206 0.342528 31.0185 0.133869 30.2823 0.133869ZM33.7864 2.21106H35.0614L34.857 3.24044C35.3324 2.471 35.8481 2.08585 36.403 2.08585C36.5996 2.08585 36.8106 2.13757 37.0357 2.241L36.5122 3.41513C36.3889 3.36868 36.2569 3.34523 36.1174 3.34523C35.8828 3.34523 35.644 3.43864 35.4015 3.62515C35.159 3.81204 34.9695 4.06066 34.833 4.37244C34.6968 4.6841 34.5619 5.17788 34.4287 5.85428L34.0956 7.51835H32.7304L33.7864 2.21106Z" fill="#86909B"/>
<path d="M34.1474 7.58515H32.6522L32.6684 7.50473L33.7348 2.14393H35.1397L34.9825 2.93514C35.4207 2.32697 35.8974 2.01878 36.4031 2.01878C36.6074 2.01878 36.8293 2.07309 37.0615 2.17962L37.121 2.20696L36.5454 3.49851L36.4908 3.4781C36.3745 3.43417 36.2491 3.41197 36.1175 3.41197C35.8978 3.41197 35.6698 3.50154 35.4393 3.6789C35.2063 3.85842 35.0217 4.10098 34.891 4.40008C34.7569 4.70654 34.6225 5.20039 34.4908 5.86762L34.1474 7.58515ZM32.8086 7.45128H34.0439L34.3667 5.84028C34.4999 5.16339 34.6373 4.66002 34.7751 4.34447C34.9154 4.02452 35.1136 3.76408 35.364 3.57107C35.6168 3.37683 35.8701 3.2781 36.1175 3.2781C36.2433 3.2781 36.3646 3.29678 36.4788 3.33291L36.9501 2.27569C36.7565 2.19397 36.5728 2.15265 36.403 2.15265C35.8734 2.15265 35.3714 2.53087 34.9104 3.2768L34.7255 3.5759L34.9833 2.27786H33.8383L32.8086 7.45128ZM41.2248 5.30957H37.7996C37.7963 5.36611 37.7946 5.40917 37.7946 5.43917C37.7946 5.79259 37.8906 6.07727 38.0826 6.29379C38.2742 6.51068 38.5084 6.61893 38.7841 6.61893C39.2376 6.61893 39.5915 6.37248 39.8451 5.87907L41.0679 6.09422C40.83 6.61071 40.5118 6.99802 40.114 7.2558C39.716 7.51401 39.2695 7.64305 38.7746 7.64305C38.0959 7.64305 37.5443 7.41751 37.1193 6.96629C36.6939 6.51464 36.4816 5.9173 36.4816 5.1744C36.4816 4.44802 36.6736 3.80206 37.0572 3.23566C37.5807 2.46919 38.3277 2.08584 39.298 2.08584C39.9167 2.08584 40.4079 2.28664 40.7729 2.68837C41.1374 3.08954 41.32 3.65205 41.32 4.37497C41.32 4.72139 41.2881 5.03262 41.2248 5.30957ZM40.0735 4.43497C40.0764 4.3715 40.0781 4.32325 40.0781 4.28978C40.0781 3.89684 39.9941 3.60207 39.826 3.40516C39.6581 3.20869 39.4329 3.11045 39.1507 3.11045C38.8681 3.11045 38.6152 3.22217 38.3918 3.44512C38.1683 3.66857 38.0164 3.99854 37.9374 4.43497H40.0735H40.0735Z" fill="#86909B"/>
<path d="M38.7747 7.70993C38.0816 7.70993 37.5096 7.47516 37.0743 7.01312C36.639 6.55101 36.418 5.93239 36.418 5.17428C36.418 4.43751 36.6157 3.77237 37.0056 3.19681C37.5394 2.41519 38.3107 2.01878 39.2981 2.01878C39.9317 2.01878 40.4432 2.22874 40.8189 2.6421C41.1938 3.05471 41.3837 3.63757 41.3837 4.37484C41.3837 4.72393 41.3511 5.04388 41.2865 5.32516L41.2749 5.37644H37.8601C37.8589 5.40119 37.8585 5.42253 37.8585 5.43905C37.8585 5.77329 37.9495 6.04541 38.1291 6.24801C38.3099 6.45277 38.5243 6.55188 38.7842 6.55188C39.2166 6.55188 39.5456 6.3215 39.7893 5.84721L39.8108 5.80502L39.8556 5.81331L41.1623 6.04282L41.1251 6.12324C40.8831 6.64881 40.5541 7.04869 40.1477 7.31259C39.7413 7.57606 39.2791 7.70993 38.7747 7.70993ZM39.2981 2.15265C38.3542 2.15265 37.6176 2.53 37.1091 3.27463C36.7349 3.82669 36.5454 4.46572 36.5454 5.17428C36.5454 5.8959 36.7535 6.48278 37.1645 6.91921C37.575 7.35521 38.1171 7.57606 38.7747 7.57606C39.2551 7.57606 39.6945 7.44912 40.0807 7.1987C40.4456 6.9622 40.7457 6.60792 40.9728 6.14501L39.8791 5.95244C39.6159 6.43886 39.2477 6.68574 38.7842 6.68574C38.4908 6.68574 38.2392 6.56883 38.036 6.33889C37.8336 6.11105 37.731 5.80811 37.731 5.43905C37.731 5.40812 37.7326 5.36382 37.7364 5.30555L37.7401 5.24251H41.1744C41.229 4.98393 41.2563 4.69263 41.2563 4.37484C41.2563 3.67284 41.0784 3.12115 40.727 2.73427C40.3761 2.34825 39.8953 2.15265 39.2981 2.15265ZM40.1341 4.50178H37.8605L37.875 4.42223C37.9561 3.97447 38.1155 3.62935 38.348 3.39675C38.583 3.16248 38.8529 3.04333 39.1508 3.04333C39.4504 3.04333 39.6938 3.15035 39.8734 3.36025C40.0517 3.56891 40.1419 3.88193 40.1419 4.28966C40.1419 4.32399 40.1403 4.37317 40.137 4.43788L40.1341 4.50178ZM38.0153 4.36791H40.0128C40.014 4.33618 40.0145 4.31007 40.0145 4.28966C40.0145 3.91583 39.9354 3.63281 39.779 3.44982C39.6221 3.26634 39.4165 3.17726 39.1508 3.17726C38.8868 3.17726 38.6459 3.28329 38.4358 3.49325C38.2363 3.69282 38.0952 3.98666 38.0153 4.36791Z" fill="#86909B"/>
<path d="M46.0991 7.51833H44.805L44.9193 6.94363C44.6718 7.19355 44.4285 7.37271 44.1889 7.48096C43.9493 7.58922 43.6791 7.64304 43.3778 7.64304C42.8543 7.64304 42.4302 7.45572 42.1049 7.08103C41.78 6.70627 41.6174 6.15249 41.6174 5.41912C41.6174 4.56976 41.8459 3.80205 42.3027 3.11564C42.7591 2.42922 43.3633 2.08582 44.1152 2.08582C44.7939 2.08582 45.3029 2.36921 45.6422 2.93568L46.1893 0.191807H47.5549L46.0991 7.51833ZM42.945 5.3596C42.945 5.73906 43.0361 6.03557 43.2186 6.24899C43.4006 6.46198 43.6253 6.56894 43.8914 6.56894C44.1389 6.56894 44.3698 6.47986 44.5837 6.30157C44.7977 6.12329 44.969 5.85079 45.0976 5.48438C45.226 5.11791 45.2901 4.76617 45.2901 4.42976C45.2901 4.04678 45.192 3.73685 44.9955 3.50035C44.7985 3.26386 44.5717 3.14564 44.3151 3.14564C43.9154 3.14564 43.5873 3.37861 43.3303 3.84505C43.0733 4.31148 42.945 4.81621 42.945 5.3596Z" fill="#86909B"/>
<path d="M43.378 7.70992C42.8383 7.70992 42.3943 7.51344 42.0579 7.12569C41.7235 6.74011 41.5538 6.16585 41.5538 5.41899C41.5538 4.55961 41.7885 3.77193 42.2507 3.07728C42.7179 2.37515 43.3453 2.01877 44.1154 2.01877C44.7597 2.01877 45.2617 2.27085 45.6109 2.76816L46.1377 0.12475H47.6332L47.6171 0.20517L46.1509 7.58514H44.727L44.8172 7.13176C44.614 7.31518 44.4121 7.453 44.2143 7.54215C43.9681 7.65337 43.6866 7.70992 43.378 7.70992ZM44.1154 2.15264C43.3891 2.15264 42.797 2.48954 42.355 3.15374C41.9077 3.82538 41.6813 4.58788 41.6813 5.41899C41.6813 6.13152 41.8394 6.67534 42.1523 7.03612C42.4634 7.3943 42.8756 7.57605 43.378 7.57605C43.6693 7.57605 43.9337 7.52346 44.1638 7.41954C44.3951 7.31518 44.6343 7.13868 44.8756 6.89526L45.0237 6.74574L44.8834 7.45127H46.0475L47.4768 0.258557H46.2411L45.6722 3.11069L45.5885 2.97113C45.2588 2.42037 44.7766 2.15264 44.1154 2.15264ZM43.8915 6.63575C43.6076 6.63575 43.3655 6.52056 43.1714 6.29365C42.9791 6.06848 42.8814 5.75422 42.8814 5.35948C42.8814 4.8065 43.0142 4.28575 43.2753 3.81146C43.5431 3.32547 43.8931 3.07858 44.3152 3.07858C44.5896 3.07858 44.8346 3.20595 45.0436 3.45631C45.2492 3.70413 45.3539 4.03144 45.3539 4.42964C45.3539 4.7726 45.2877 5.13517 45.1574 5.50727C45.0249 5.88413 44.8454 6.16888 44.6231 6.35366C44.3988 6.54054 44.1526 6.63575 43.8915 6.63575ZM44.3152 3.21245C43.9366 3.21245 43.6324 3.4302 43.3854 3.87839C43.1355 4.33227 43.0089 4.83044 43.0089 5.35948C43.0089 5.72026 43.0953 6.00458 43.2658 6.20408C43.4372 6.40451 43.642 6.50188 43.8915 6.50188C44.1232 6.50188 44.343 6.41713 44.5445 6.2493C44.7481 6.0793 44.914 5.8146 45.0382 5.46118C45.1631 5.10387 45.2265 4.75695 45.2265 4.42964C45.2265 4.0649 45.133 3.76673 44.9475 3.54415C44.7617 3.32071 44.5549 3.21245 44.3152 3.21245Z" fill="#86909B"/>
<path d="M48.1475 2.21103H49.5127L48.4566 7.51833H47.0914L48.1475 2.21103ZM48.5472 0.191747H49.9124L49.6555 1.49109H48.2902L48.5472 0.191747Z" fill="#86909B"/>
<path d="M48.5084 7.58514H47.0134L47.0295 7.50472L48.0959 2.14391H49.591L49.5749 2.22433L48.5084 7.58514ZM47.1698 7.45127H48.405L49.4346 2.27778H48.1993L47.1698 7.45127ZM49.7073 1.55796H48.2121L48.4956 0.12475H49.9908L49.7073 1.55796ZM48.3686 1.42409H49.6038L49.8343 0.258619H48.5991L48.3686 1.42409Z" fill="#86909B"/>
<path d="M49.8483 3.27519L50.0577 2.21104H50.7239L50.8902 1.36119L52.4557 0.371774L52.0891 2.21104H52.9217L52.7123 3.27519H51.8752L51.4328 5.49911C51.3533 5.90251 51.3137 6.13251 51.3137 6.18899C51.3137 6.29898 51.3472 6.3846 51.4138 6.44634C51.4803 6.50808 51.6009 6.53895 51.7755 6.53895C51.8355 6.53895 51.9861 6.52719 52.2274 6.50368L52.013 7.56832C51.775 7.61861 51.5328 7.64366 51.29 7.64311C50.808 7.64311 50.4575 7.54574 50.2386 7.351C50.0196 7.15626 49.9104 6.88543 49.9104 6.53895C49.9104 6.37551 49.9692 5.99902 50.0863 5.40917L50.5096 3.27519H49.8483Z" fill="#86909B"/>
<path d="M51.2901 7.70991C50.7948 7.70991 50.4273 7.60599 50.1977 7.40172C49.9646 7.19479 49.8467 6.90435 49.8467 6.53881C49.8467 6.37018 49.9047 5.99585 50.0242 5.39555L50.4314 3.34199H49.7701L50.006 2.14391H50.6723L50.8337 1.31886L52.5477 0.235666L52.1675 2.14397H53L52.7641 3.34205H51.927L51.495 5.51253C51.3927 6.03334 51.3774 6.15978 51.3774 6.18892C51.3774 6.27936 51.4031 6.34716 51.4561 6.39628C51.4933 6.43061 51.5789 6.47194 51.7755 6.47194C51.8335 6.47194 51.9832 6.46018 52.2216 6.43717L52.3073 6.42888L52.0664 7.62479L52.0259 7.63388C51.7836 7.68488 51.5372 7.71031 51.2901 7.70991ZM49.9266 3.20812H50.5879L50.1484 5.42252C50.0329 6.00587 49.9742 6.38143 49.9742 6.53881C49.9742 6.86791 50.0739 7.11697 50.2796 7.29996C50.4857 7.48344 50.8258 7.57604 51.2901 7.57604C51.5181 7.57604 51.7433 7.55427 51.9597 7.51127L52.1475 6.5784C51.9526 6.59665 51.8306 6.60574 51.7755 6.60574C51.5831 6.60574 51.451 6.56968 51.3717 6.49625C51.291 6.4214 51.25 6.31796 51.25 6.18886C51.25 6.14976 51.2628 6.03371 51.3708 5.48549L51.8235 3.20812H52.6607L52.8436 2.27784H52.011L52.3635 0.507734L50.9471 1.40318L50.7757 2.27784H50.1095L49.9266 3.20812Z" fill="#86909B"/>
<path d="M26.0034 19.7193H24.0539L26.0357 9.77716H29.8833C30.5677 9.77716 31.1091 9.86191 31.5071 10.0314C31.9052 10.201 32.2205 10.4814 32.4527 10.8726C32.6853 11.2638 32.8015 11.7303 32.8015 12.2728C32.8015 12.7748 32.7088 13.2631 32.5239 13.7377C32.3389 14.2124 32.1117 14.5923 31.8428 14.8771C31.5738 15.1618 31.2845 15.3779 30.9746 15.5248C30.6646 15.6718 30.247 15.7835 29.7219 15.8604C29.4165 15.9056 28.8442 15.9282 28.0046 15.9282H26.759L26.0034 19.7193ZM27.0818 14.2803H27.6818C28.7106 14.2803 29.3971 14.2125 29.7414 14.0768C30.0857 13.9412 30.3568 13.7242 30.5549 13.426C30.7528 13.1274 30.8517 12.7997 30.8517 12.4423C30.8517 12.2028 30.8011 12.0063 30.7002 11.8524C30.5988 11.699 30.4569 11.5868 30.274 11.5168C30.091 11.4469 29.6834 11.4117 29.0507 11.4117H27.6562L27.0818 14.2803Z" fill="#86909B"/>
<path d="M26.0895 19.8304H23.9236L23.9501 19.6965L25.9497 9.66564H29.8835C30.5782 9.66564 31.1381 9.75392 31.547 9.92824C31.9645 10.106 32.2997 10.4038 32.5426 10.8137C32.7846 11.2207 32.9076 11.7118 32.9076 12.2726C32.9076 12.7864 32.8116 13.2933 32.622 13.7797C32.4325 14.2657 32.1958 14.6613 31.9181 14.9552C31.6409 15.2486 31.338 15.4746 31.0181 15.6259C30.7011 15.7763 30.2699 15.8924 29.7365 15.9706C29.4237 16.0167 28.8571 16.0393 28.0047 16.0393H26.8451L26.0895 19.8304V19.8304ZM24.1843 19.6079H25.9174L26.673 15.8168H28.0047C28.8352 15.8168 29.4083 15.7941 29.7071 15.7503C30.2207 15.6751 30.6324 15.5651 30.9312 15.4234C31.2271 15.2829 31.5089 15.0726 31.7675 14.7987C32.0257 14.5252 32.2471 14.1544 32.4259 13.6954C32.6051 13.2359 32.6957 12.7573 32.6957 12.2726C32.6957 11.754 32.5836 11.3028 32.363 10.9316C32.1441 10.5625 31.8428 10.2943 31.4675 10.1343C31.0839 9.9713 30.5509 9.88828 29.8834 9.88828H26.1218L24.1844 19.6079H24.1843ZM27.6819 14.3914H26.9515L27.5702 11.3001H29.0508C29.7013 11.3001 30.1135 11.3366 30.3105 11.4119C30.5128 11.4897 30.6734 11.6162 30.7872 11.7888C30.9006 11.9614 30.9577 12.1809 30.9577 12.4422C30.9577 12.8208 30.8513 13.1734 30.6419 13.4894C30.4321 13.8054 30.1416 14.038 29.7787 14.181C29.4191 14.3226 28.733 14.3914 27.6819 14.3914ZM27.2122 14.1688H27.6819C28.6933 14.1688 29.3736 14.1027 29.7042 13.9723C30.0261 13.8454 30.2831 13.6402 30.4681 13.362C30.6523 13.0842 30.7458 12.7747 30.7458 12.4421C30.7458 12.227 30.7011 12.0496 30.613 11.9153C30.5236 11.7801 30.4007 11.6836 30.2376 11.6215C30.1205 11.5762 29.8193 11.5227 29.0508 11.5227H27.7423L27.2122 14.1688ZM33.9027 12.5171H35.7553L34.3223 19.7193H32.4693L33.9027 12.5171ZM36.284 10.5644C36.284 11.2558 35.7504 11.8163 35.0922 11.8163C34.434 11.8163 33.9004 11.2558 33.9004 10.5644C33.9004 9.87294 34.434 9.31241 35.0922 9.31241C35.7505 9.31241 36.284 9.87288 36.284 10.5644Z" fill="#86909B"/>
<path d="M34.4085 19.8304H32.339L33.8167 12.4056H35.8858L34.4085 19.8304V19.8304ZM32.5997 19.6079H34.2364L35.6251 12.6282H33.9889L32.5997 19.6079ZM35.0921 11.9275C34.3766 11.9275 33.7944 11.3159 33.7944 10.5643C33.7944 9.81264 34.3766 9.20101 35.0921 9.20101C35.8076 9.20101 36.3899 9.81264 36.3899 10.5643C36.3899 11.3159 35.8076 11.9275 35.0921 11.9275ZM35.0921 9.42359C34.4933 9.42359 34.0062 9.93519 34.0062 10.5643C34.0062 11.1933 34.4933 11.7049 35.0921 11.7049C35.6909 11.7049 36.178 11.1933 36.178 10.5642C36.178 9.93525 35.691 9.42359 35.0921 9.42359ZM35.733 19.7193L37.7148 9.77713H39.5612L37.5857 19.7193H35.733Z" fill="#86909B"/>
<path d="M37.6718 19.8304H35.6027L35.6292 19.6965L37.6288 9.66564H39.6917L37.6718 19.8304V19.8304ZM35.8634 19.6079H37.4997L39.431 9.88828H37.8009L35.8634 19.6079Z" fill="#86909B"/>
<path d="M39.2939 16.7285C39.2939 15.3948 39.6522 14.3311 40.369 13.5378C41.0857 12.7444 42.0272 12.3476 43.1933 12.3476C44.2046 12.3476 44.9946 12.6405 45.5628 13.2256C46.131 13.8112 46.4149 14.5989 46.4149 15.5892C46.4149 16.7559 46.0598 17.764 45.3497 18.6138C44.6395 19.4641 43.6882 19.8888 42.496 19.8888C41.8504 19.8888 41.2782 19.7532 40.7791 19.4819C40.2796 19.2107 39.9076 18.8264 39.6622 18.3291C39.4168 17.8318 39.2939 17.2984 39.2939 16.7285ZM44.5751 15.3383C44.5751 14.8771 44.4467 14.5076 44.191 14.2294C43.9348 13.9516 43.6042 13.8124 43.1999 13.8124C42.7997 13.8124 42.4447 13.9425 42.1348 14.2024C41.8248 14.4624 41.5836 14.8397 41.4118 15.3349C41.2392 15.83 41.1531 16.2855 41.1531 16.7016C41.1531 17.2167 41.2868 17.6262 41.5538 17.9287C41.8202 18.2317 42.1562 18.3834 42.5605 18.3834C43.0687 18.3834 43.4945 18.1552 43.8388 17.6983C44.3296 17.0519 44.5751 16.2651 44.5751 15.3383Z" fill="#86909B"/>
<path d="M42.4961 20C41.8365 20 41.2422 19.8587 40.7304 19.5806C40.2139 19.3001 39.8229 18.8962 39.5684 18.3803C39.3159 17.869 39.1881 17.3131 39.1881 16.7284C39.1881 15.3712 39.5597 14.2718 40.2921 13.4611C41.0266 12.6483 42.0029 12.2362 43.1934 12.2362C44.2287 12.2362 45.0506 12.5422 45.6369 13.146C46.2234 13.7507 46.5209 14.5722 46.5209 15.5891C46.5209 16.778 46.1538 17.8204 45.4292 18.6872C44.7017 19.5583 43.7148 20 42.4961 20ZM43.1933 12.4587C42.0629 12.4587 41.1388 12.8474 40.4461 13.6142C39.7517 14.3827 39.4 15.4304 39.4 16.7284C39.4 17.277 39.5199 17.7986 39.7562 18.2777C39.9904 18.7519 40.3509 19.1241 40.828 19.3832C41.3093 19.6448 41.8708 19.7774 42.4961 19.7774C43.6511 19.7774 44.5847 19.3614 45.2704 18.5402C45.9594 17.7152 46.309 16.7223 46.309 15.5891C46.309 14.6344 46.033 13.8658 45.4888 13.3051C44.9434 12.7434 44.1713 12.4587 43.1933 12.4587ZM42.5606 18.4946C42.1274 18.4946 41.7624 18.3294 41.476 18.0043C41.1918 17.6817 41.0473 17.2435 41.0473 16.7015C41.0473 16.2737 41.1367 15.8012 41.3126 15.2965C41.4897 14.7849 41.7442 14.3875 42.0686 14.1154C42.3964 13.8407 42.7771 13.7011 43.2 13.7011C43.6324 13.7011 43.9912 13.8528 44.2672 14.1519C44.542 14.4506 44.6811 14.8496 44.6811 15.3382C44.6811 16.2867 44.4257 17.104 43.9217 17.7678C43.5583 18.2499 43.1003 18.4946 42.5606 18.4946V18.4946ZM43.2 13.9236C42.8264 13.9236 42.4903 14.0467 42.2011 14.2892C41.9072 14.5353 41.6755 14.9 41.5117 15.373C41.3441 15.8533 41.2592 16.3002 41.2592 16.7015C41.2592 17.1852 41.3846 17.5731 41.6317 17.8529C41.8795 18.1351 42.1837 18.2721 42.5606 18.2721C43.0391 18.2721 43.4297 18.0617 43.7557 17.6291C44.2292 17.0058 44.4692 16.235 44.4692 15.3382C44.4692 14.9096 44.35 14.5623 44.115 14.3067C43.8774 14.0489 43.5782 13.9236 43.2 13.9236Z" fill="#86909B"/>
<path d="M47.1672 13.9616L47.451 12.5171H48.3548L48.5807 11.3642L50.7049 10.0214L50.2075 12.517H51.3376L51.0533 13.9616H49.917L49.3169 16.9793C49.2089 17.5266 49.1556 17.8383 49.1556 17.9153C49.1556 18.0643 49.2007 18.1808 49.2909 18.2648C49.3815 18.3482 49.5449 18.3899 49.7817 18.3899C49.8632 18.3899 50.0676 18.3743 50.3949 18.3425L50.1044 19.787C49.7859 19.8549 49.4589 19.8888 49.1233 19.8888C48.4686 19.8888 47.9932 19.7566 47.6964 19.4919C47.3993 19.2276 47.2507 18.8603 47.2507 18.3899C47.2507 18.1686 47.3306 17.6575 47.4899 16.8576L48.0643 13.9616H47.1672Z" fill="#86909B"/>
<path d="M49.1233 19.9999C48.4459 19.9999 47.9427 19.8573 47.6279 19.5766C47.3075 19.2914 47.145 18.8924 47.145 18.3898C47.145 18.159 47.2239 17.6504 47.3862 16.8348L47.9341 14.0727H47.0373L47.3646 12.4056H48.2685L48.4865 11.2937L48.5262 11.2689L50.8585 9.79438L50.3379 12.4056H51.4677L51.1395 14.0728H50.0031L49.4209 17.0018C49.2769 17.7299 49.2616 17.8829 49.2616 17.9151C49.2616 18.032 49.2943 18.119 49.3613 18.1811C49.4093 18.2255 49.5215 18.2785 49.7818 18.2785C49.8364 18.2785 49.9854 18.2703 50.3851 18.2316L50.5283 18.2176L50.1939 19.8813L50.1256 19.8961C49.8016 19.9652 49.4643 20 49.1233 20V19.9999ZM47.2972 13.8501H48.1948L47.5939 16.8801C47.4366 17.6695 47.3568 18.1777 47.3568 18.3898C47.3568 18.8297 47.4905 19.1627 47.7648 19.407C48.0404 19.6526 48.4977 19.7774 49.1234 19.7774C49.4263 19.7774 49.7258 19.7487 50.0156 19.6917L50.2617 18.4668C50.0156 18.4898 49.8546 18.5011 49.7818 18.5011C49.5161 18.5011 49.3328 18.4511 49.221 18.348C49.1072 18.2424 49.0497 18.0968 49.0497 17.9151C49.0497 17.8594 49.0667 17.6995 49.2132 16.9566L49.831 13.8501H50.9673L51.2078 12.6282H50.0772L50.5515 10.2482L48.6753 11.4345L48.4414 12.6282H47.5376L47.2972 13.8501Z" fill="#86909B"/>
</svg>
