// Jest Snapshot v1, https://goo.gl/fbAQLP

exports[`ControllerCivilLawSubjectsTables should correct snapshot render 1`] = `
<div
  className="col-xl-10 col-lg-8 col-lt-6 col-sm-4 col-xl-offset-2 col-lg-offset-1 col-lt-offset-0 Preloader Preloader_solid"
>
  <div
    className="row"
  >
    <div
      className="col-xl-12"
    >
      <h2
        className="TitleBlue"
      >
        Ваши сохранённые правовые формы
      </h2>
    </div>
  </div>
  <label
    className="tab-point active js-tab-btn"
    htmlFor="tab1"
    title="Физические лица"
  >
    <span
      className="tab-point_text link-with-dotted-line"
    >
      Физические лица (
      0
      )
    </span>
  </label>
  <label
    className="tab-point js-tab-btn"
    htmlFor="tab2"
    title="Юридические лица"
  >
    <span
      className="tab-point_text link-with-dotted-line"
    >
      Юридические лица (
      0
      )
    </span>
  </label>
  <label
    className="tab-point js-tab-btn"
    htmlFor="tab3"
    title="Индивидуальные предприниматели"
  >
    <span
      className="tab-point_text link-with-dotted-line"
    >
      ИП (
      0
      )
    </span>
  </label>
  <input
    className="tab-input js-tab-input js-civil-law-subject"
    data-value="table_natural_persons"
    id="tab1"
    name="tabs"
    onChange={[Function]}
    type="radio"
  />
  <input
    className="tab-input js-tab-input js-civil-law-subject"
    data-value="table_legal_entities"
    id="tab2"
    name="tabs"
    onChange={[Function]}
    type="radio"
  />
  <input
    className="tab-input js-tab-input js-civil-law-subject"
    data-value="table_sole_proprietors"
    id="tab3"
    name="tabs"
    onChange={[Function]}
    type="radio"
  />
  <div
    className="ProfilePage-Section"
    id="profile-page-table"
  >
    <TableNaturalPersons
      isNewItem={false}
      isOperator={null}
      is_nested={true}
      naturalPersons={Array []}
      tableIsLoading={true}
      updateCollection={[Function]}
    />
  </div>
</div>
`;
