<svg width="128" height="60" viewBox="0 0 128 60" fill="none" xmlns="http://www.w3.org/2000/svg">
<path fill-rule="evenodd" clip-rule="evenodd" d="M22.0224 7.29589C17.0222 7.29589 12.9794 11.2565 12.9794 16.1204H13.0149V25.2576H5.56767V16.1204C5.56767 7.22639 12.9439 0 22.0224 0C31.0654 0 38.4415 7.22639 38.4773 16.1204V25.2576H31.03V16.1204C31.03 11.2565 26.9872 7.29589 22.0224 7.29589ZM0 60H44.0094V29.6005H0V60ZM15.5682 42.4204L19.7173 46.4854L29.3278 37.07L32.413 40.0925L19.7173 52.5304L12.4829 45.4429L15.5682 42.4204ZM80.0751 26.9601C80.0751 22.5825 77.4509 20.0811 73.3016 18.5524L69.4719 16.9543L69.3657 16.9169C66.3729 15.8601 64.2942 15.1263 64.2942 13.3063C64.2942 11.4997 65.89 10.4922 68.2659 10.4922C71.3514 10.4922 73.337 11.3955 75.536 12.9589L79.1532 8.54661C76.2806 5.90621 72.4859 4.48179 68.6561 4.48179C61.8473 4.48179 57.0952 8.54661 57.0952 13.6885C57.0952 18.205 60.2869 20.8454 63.8329 22.1309L67.9114 23.8332C68.1171 23.9162 68.3173 23.9963 68.512 24.074C71.1734 25.1373 72.8053 25.7892 72.8053 27.8286C72.8053 29.392 71.3867 30.5385 68.3724 30.5385C65.3226 30.5385 62.379 29.2183 60.0031 27.3075L55.8893 32.1019C59.2585 35.055 63.6203 36.5489 67.8757 36.5489C75.6778 36.5489 80.0751 32.0672 80.0751 26.9601ZM93.6573 16.9543L97.4874 18.5524C101.672 20.0811 104.261 22.5825 104.296 26.9601C104.296 32.1019 99.899 36.5489 92.0615 36.5489C87.8061 36.5489 83.4439 35.055 80.0751 32.1019L84.1889 27.3075C86.5648 29.2183 89.508 30.5385 92.5582 30.5385C95.5725 30.5385 96.9907 29.392 96.9907 27.8286C96.9907 25.7892 95.3592 25.1373 92.6978 24.074C92.5031 23.9963 92.3025 23.9162 92.0968 23.8332L88.0187 22.1309C84.4726 20.8454 81.2807 18.205 81.2807 13.6885C81.2807 8.54661 86.0327 4.48179 92.8419 4.48179C96.6717 4.48179 100.466 5.90621 103.339 8.54661L99.7214 12.9589C97.5228 11.3955 95.5368 10.4922 92.4517 10.4922C90.0755 10.4922 88.4797 11.4997 88.4797 13.3063C88.4797 15.1263 90.5583 15.8601 93.5515 16.9169L93.6573 16.9543Z" fill="#D5DCE6"/>
<path d="M7.09765 24.882V0H0V30.7143H21.151V24.882H7.09765Z" transform="translate(106.849 4.99902)" fill="#D5DCE6"/>
<path d="M6.81382 6.52793L4.88741 5.72504C3.71014 5.23632 2.42586 4.7825 2.42586 3.49087C2.42586 2.26906 3.4961 1.53598 5.10143 1.53598C6.52843 1.53598 7.56297 2.0247 8.49051 2.7927L9.41806 1.67562C8.41918 0.698175 6.92086 0 5.1728 0C2.56856 0 0.677816 1.50108 0.677816 3.56069C0.677816 5.51557 2.28316 6.49304 3.63879 7.01664L5.60089 7.85447C6.99219 8.44789 8.06242 8.86682 8.06242 10.2981C8.06242 11.5548 6.95652 12.4275 5.06577 12.4275C3.4961 12.4275 2.06912 11.7642 1.03456 10.7519L0 11.9388C1.2486 13.1606 2.96098 13.9286 4.99444 13.9286C8.02676 13.9286 9.84615 12.218 9.84615 10.0886C9.84615 8.09882 8.49051 7.19118 6.81382 6.52793Z" transform="translate(55.7947 40.3574)" fill="#D5DCE6"/>
<path d="M1.7576 7.00186H7.49671V5.56029H1.7576V1.40724H8.5369V0H0V13.2143H8.75213V11.7727H1.7576V7.00186Z" transform="translate(69.2878 40.7144)" fill="#D5DCE6"/>
<path fill-rule="evenodd" clip-rule="evenodd" d="M1.81675 6.91218C1.81675 10.2815 3.52664 12.4003 6.1627 12.4003C7.44511 12.4003 8.40689 11.8792 9.22624 10.9067L10.2237 11.9487C9.15498 13.1644 7.80136 13.8938 5.9846 13.8938C2.60045 13.8938 0 11.3235 0 6.94693C0 2.63981 2.60045 0 6.1627 0C7.80136 0 9.11939 0.764161 9.90307 1.63251L8.90566 2.70931C8.22879 1.97989 7.30259 1.49358 6.1627 1.49358C3.52664 1.49358 1.81675 3.57768 1.81675 6.91218ZM17.4907 12.435C19.1649 12.435 20.4117 11.4277 20.4117 8.64889H20.3761V0.277884H22.086V8.61421C22.086 12.4698 20.1624 13.9286 17.4907 13.9286C14.819 13.9286 12.8598 12.435 12.8598 8.61421V0.277884H14.6053V8.64889C14.6053 11.4277 15.852 12.435 17.4907 12.435ZM34.9101 4.02925C34.9101 1.25044 32.9152 0.277884 30.1367 0.277884H25.862V13.6507H27.6075V7.98897H30.0654L33.3783 13.6507H35.3732L31.8822 7.81529C33.6633 7.36375 34.9101 6.11329 34.9101 4.02925ZM27.5718 6.59957H29.8517C31.989 6.59957 33.1646 5.76596 33.1646 4.02918C33.1646 2.25774 31.989 1.63251 29.8517 1.63251H27.5718V6.59957Z" transform="translate(80.5925 40.3574)" fill="#D5DCE6"/>
<path d="M1.78615 7.00186H7.50181V5.56029H1.78615V1.40724H8.53778V0H0V13.2143H8.75213V11.7727H1.78615V7.00186Z" transform="translate(119.248 40.7144)" fill="#D5DCE6"/>
</svg>